^E:\SETTING SOFTWARE SPACE\SDL LIBRARY\16521615_CG\16521615_CG\SOURCE.CPP
/c /I"E:\Setting Software Space\SDL library\SDL2-2.0.8\include" /ZI /nologo /W3 /WX- /sdl /Od /Oy- /D _MBCS /Gm /EHsc /RTC1 /MDd /GS /fp:precise /Zc:wchar_t /Zc:forScope /Fo"DEBUG\\" /Fd"DEBUG\VC120.PDB" /Gd /TP /analyze- E:\SETTING SOFTWARE SPACE\SDL LIBRARY\16521615_CG\16521615_CG\SOURCE.CPP
^E:\SETTING SOFTWARE SPACE\SDL LIBRARY\HEADER FILES\CIRCLE.CPP
/c /I"E:\Setting Software Space\SDL library\SDL2-2.0.8\include" /ZI /nologo /W3 /WX- /sdl /Od /Oy- /D _MBCS /Gm /EHsc /RTC1 /MDd /GS /fp:precise /Zc:wchar_t /Zc:forScope /Fo"DEBUG\\" /Fd"DEBUG\VC120.PDB" /Gd /TP /analyze- E:\SETTING SOFTWARE SPACE\SDL LIBRARY\HEADER FILES\CIRCLE.CPP
^E:\SETTING SOFTWARE SPACE\SDL LIBRARY\HEADER FILES\LINE.CPP
/c /I"E:\Setting Software Space\SDL library\SDL2-2.0.8\include" /ZI /nologo /W3 /WX- /sdl /Od /Oy- /D _MBCS /Gm /EHsc /RTC1 /MDd /GS /fp:precise /Zc:wchar_t /Zc:forScope /Fo"DEBUG\\" /Fd"DEBUG\VC120.PDB" /Gd /TP /analyze- E:\SETTING SOFTWARE SPACE\SDL LIBRARY\HEADER FILES\LINE.CPP
^E:\SETTING SOFTWARE SPACE\SDL LIBRARY\HEADER FILES\MAIN.CPP
/c /I"E:\Setting Software Space\SDL library\SDL2-2.0.8\include" /ZI /nologo /W3 /WX- /sdl /Od /Oy- /D _MBCS /Gm /EHsc /RTC1 /MDd /GS /fp:precise /Zc:wchar_t /Zc:forScope /Fo"DEBUG\\" /Fd"DEBUG\VC120.PDB" /Gd /TP /analyze- E:\SETTING SOFTWARE SPACE\SDL LIBRARY\HEADER FILES\MAIN.CPP
^E:\SETTING SOFTWARE SPACE\SDL LIBRARY\16521615_CG\16521615_CG\CIRCLE.CPP
/c /I"E:\Setting Software Space\SDL library\SDL2-2.0.8\include" /ZI /nologo /W3 /WX- /sdl /Od /Oy- /D _MBCS /Gm /EHsc /RTC1 /MDd /GS /fp:precise /Zc:wchar_t /Zc:forScope /Fo"DEBUG\\" /Fd"DEBUG\VC120.PDB" /Gd /TP /analyze- E:\SETTING SOFTWARE SPACE\SDL LIBRARY\16521615_CG\16521615_CG\CIRCLE.CPP
^E:\SETTING SOFTWARE SPACE\SDL LIBRARY\16521615_CG\16521615_CG\LINE.CPP
/c /I"E:\Setting Software Space\SDL library\SDL2-2.0.8\include" /ZI /nologo /W3 /WX- /sdl /Od /Oy- /D _MBCS /Gm /EHsc /RTC1 /MDd /GS /fp:precise /Zc:wchar_t /Zc:forScope /Fo"DEBUG\\" /Fd"DEBUG\VC120.PDB" /Gd /TP /analyze- E:\SETTING SOFTWARE SPACE\SDL LIBRARY\16521615_CG\16521615_CG\LINE.CPP
^E:\SETTING SOFTWARE SPACE\SDL LIBRARY\16521615_CG\16521615_CG\MAIN.CPP
/c /I"E:\Setting Software Space\SDL library\SDL2-2.0.8\include" /ZI /nologo /W3 /WX- /sdl /Od /Oy- /D _MBCS /Gm /EHsc /RTC1 /MDd /GS /fp:precise /Zc:wchar_t /Zc:forScope /Fo"DEBUG\\" /Fd"DEBUG\VC120.PDB" /Gd /TP /analyze- E:\SETTING SOFTWARE SPACE\SDL LIBRARY\16521615_CG\16521615_CG\MAIN.CPP
