^E:\SETTING SOFTWARE SPACE\SDL LIBRARY\16521615_CG\16521615_CG\DRAWPOLYGON.CPP
E:\SETTING SOFTWARE SPACE\SDL LIBRARY\SDL2-2.0.8\INCLUDE\SDL.H
E:\SETTING SOFTWARE SPACE\SDL LIBRARY\SDL2-2.0.8\INCLUDE\SDL_MAIN.H
E:\SETTING SOFTWARE SPACE\SDL LIBRARY\SDL2-2.0.8\INCLUDE\SDL_STDINC.H
E:\SETTING SOFTWARE SPACE\SDL LIBRARY\SDL2-2.0.8\INCLUDE\SDL_CONFIG.H
E:\SETTING SOFTWARE SPACE\SDL LIBRARY\SDL2-2.0.8\INCLUDE\SDL_PLATFORM.H
C:\PROGRAM FILES (X86)\WINDOWS KITS\8.1\INCLUDE\SHARED\WINAPIFAMILY.H
E:\SETTING SOFTWARE SPACE\SDL LIBRARY\SDL2-2.0.8\INCLUDE\BEGIN_CODE.H
E:\SETTING SOFTWARE SPACE\SDL LIBRARY\SDL2-2.0.8\INCLUDE\CLOSE_CODE.H
C:\PROGRAM FILES (X86)\MICROSOFT VISUAL STUDIO 12.0\VC\INCLUDE\STDDEF.H
C:\PROGRAM FILES (X86)\MICROSOFT VISUAL STUDIO 12.0\VC\INCLUDE\CRTDEFS.H
C:\PROGRAM FILES (X86)\MICROSOFT VISUAL STUDIO 12.0\VC\INCLUDE\SAL.H
C:\PROGRAM FILES (X86)\MICROSOFT VISUAL STUDIO 12.0\VC\INCLUDE\CONCURRENCYSAL.H
C:\PROGRAM FILES (X86)\MICROSOFT VISUAL STUDIO 12.0\VC\INCLUDE\VADEFS.H
C:\PROGRAM FILES (X86)\MICROSOFT VISUAL STUDIO 12.0\VC\INCLUDE\STDARG.H
E:\SETTING SOFTWARE SPACE\SDL LIBRARY\SDL2-2.0.8\INCLUDE\SDL_ASSERT.H
E:\SETTING SOFTWARE SPACE\SDL LIBRARY\SDL2-2.0.8\INCLUDE\SDL_ATOMIC.H
E:\SETTING SOFTWARE SPACE\SDL LIBRARY\SDL2-2.0.8\INCLUDE\SDL_AUDIO.H
E:\SETTING SOFTWARE SPACE\SDL LIBRARY\SDL2-2.0.8\INCLUDE\SDL_ERROR.H
E:\SETTING SOFTWARE SPACE\SDL LIBRARY\SDL2-2.0.8\INCLUDE\SDL_ENDIAN.H
E:\SETTING SOFTWARE SPACE\SDL LIBRARY\SDL2-2.0.8\INCLUDE\SDL_MUTEX.H
E:\SETTING SOFTWARE SPACE\SDL LIBRARY\SDL2-2.0.8\INCLUDE\SDL_THREAD.H
C:\PROGRAM FILES (X86)\MICROSOFT VISUAL STUDIO 12.0\VC\INCLUDE\PROCESS.H
E:\SETTING SOFTWARE SPACE\SDL LIBRARY\SDL2-2.0.8\INCLUDE\SDL_RWOPS.H
E:\SETTING SOFTWARE SPACE\SDL LIBRARY\SDL2-2.0.8\INCLUDE\SDL_CLIPBOARD.H
E:\SETTING SOFTWARE SPACE\SDL LIBRARY\SDL2-2.0.8\INCLUDE\SDL_CPUINFO.H
C:\PROGRAM FILES (X86)\MICROSOFT VISUAL STUDIO 12.0\VC\INCLUDE\INTRIN.H
C:\PROGRAM FILES (X86)\MICROSOFT VISUAL STUDIO 12.0\VC\INCLUDE\SETJMP.H
C:\PROGRAM FILES (X86)\MICROSOFT VISUAL STUDIO 12.0\VC\INCLUDE\IMMINTRIN.H
C:\PROGRAM FILES (X86)\MICROSOFT VISUAL STUDIO 12.0\VC\INCLUDE\WMMINTRIN.H
C:\PROGRAM FILES (X86)\MICROSOFT VISUAL STUDIO 12.0\VC\INCLUDE\NMMINTRIN.H
C:\PROGRAM FILES (X86)\MICROSOFT VISUAL STUDIO 12.0\VC\INCLUDE\SMMINTRIN.H
C:\PROGRAM FILES (X86)\MICROSOFT VISUAL STUDIO 12.0\VC\INCLUDE\TMMINTRIN.H
C:\PROGRAM FILES (X86)\MICROSOFT VISUAL STUDIO 12.0\VC\INCLUDE\PMMINTRIN.H
C:\PROGRAM FILES (X86)\MICROSOFT VISUAL STUDIO 12.0\VC\INCLUDE\EMMINTRIN.H
C:\PROGRAM FILES (X86)\MICROSOFT VISUAL STUDIO 12.0\VC\INCLUDE\XMMINTRIN.H
C:\PROGRAM FILES (X86)\MICROSOFT VISUAL STUDIO 12.0\VC\INCLUDE\MMINTRIN.H
C:\PROGRAM FILES (X86)\MICROSOFT VISUAL STUDIO 12.0\VC\INCLUDE\MALLOC.H
C:\PROGRAM FILES (X86)\MICROSOFT VISUAL STUDIO 12.0\VC\INCLUDE\AMMINTRIN.H
C:\PROGRAM FILES (X86)\MICROSOFT VISUAL STUDIO 12.0\VC\INCLUDE\MM3DNOW.H
E:\SETTING SOFTWARE SPACE\SDL LIBRARY\SDL2-2.0.8\INCLUDE\SDL_EVENTS.H
E:\SETTING SOFTWARE SPACE\SDL LIBRARY\SDL2-2.0.8\INCLUDE\SDL_VIDEO.H
E:\SETTING SOFTWARE SPACE\SDL LIBRARY\SDL2-2.0.8\INCLUDE\SDL_PIXELS.H
E:\SETTING SOFTWARE SPACE\SDL LIBRARY\SDL2-2.0.8\INCLUDE\SDL_RECT.H
E:\SETTING SOFTWARE SPACE\SDL LIBRARY\SDL2-2.0.8\INCLUDE\SDL_SURFACE.H
E:\SETTING SOFTWARE SPACE\SDL LIBRARY\SDL2-2.0.8\INCLUDE\SDL_BLENDMODE.H
E:\SETTING SOFTWARE SPACE\SDL LIBRARY\SDL2-2.0.8\INCLUDE\SDL_KEYBOARD.H
E:\SETTING SOFTWARE SPACE\SDL LIBRARY\SDL2-2.0.8\INCLUDE\SDL_KEYCODE.H
E:\SETTING SOFTWARE SPACE\SDL LIBRARY\SDL2-2.0.8\INCLUDE\SDL_SCANCODE.H
E:\SETTING SOFTWARE SPACE\SDL LIBRARY\SDL2-2.0.8\INCLUDE\SDL_MOUSE.H
E:\SETTING SOFTWARE SPACE\SDL LIBRARY\SDL2-2.0.8\INCLUDE\SDL_JOYSTICK.H
E:\SETTING SOFTWARE SPACE\SDL LIBRARY\SDL2-2.0.8\INCLUDE\SDL_GAMECONTROLLER.H
E:\SETTING SOFTWARE SPACE\SDL LIBRARY\SDL2-2.0.8\INCLUDE\SDL_QUIT.H
E:\SETTING SOFTWARE SPACE\SDL LIBRARY\SDL2-2.0.8\INCLUDE\SDL_GESTURE.H
E:\SETTING SOFTWARE SPACE\SDL LIBRARY\SDL2-2.0.8\INCLUDE\SDL_TOUCH.H
E:\SETTING SOFTWARE SPACE\SDL LIBRARY\SDL2-2.0.8\INCLUDE\SDL_FILESYSTEM.H
E:\SETTING SOFTWARE SPACE\SDL LIBRARY\SDL2-2.0.8\INCLUDE\SDL_HAPTIC.H
E:\SETTING SOFTWARE SPACE\SDL LIBRARY\SDL2-2.0.8\INCLUDE\SDL_HINTS.H
E:\SETTING SOFTWARE SPACE\SDL LIBRARY\SDL2-2.0.8\INCLUDE\SDL_LOADSO.H
E:\SETTING SOFTWARE SPACE\SDL LIBRARY\SDL2-2.0.8\INCLUDE\SDL_LOG.H
E:\SETTING SOFTWARE SPACE\SDL LIBRARY\SDL2-2.0.8\INCLUDE\SDL_MESSAGEBOX.H
E:\SETTING SOFTWARE SPACE\SDL LIBRARY\SDL2-2.0.8\INCLUDE\SDL_POWER.H
E:\SETTING SOFTWARE SPACE\SDL LIBRARY\SDL2-2.0.8\INCLUDE\SDL_RENDER.H
E:\SETTING SOFTWARE SPACE\SDL LIBRARY\SDL2-2.0.8\INCLUDE\SDL_SHAPE.H
E:\SETTING SOFTWARE SPACE\SDL LIBRARY\SDL2-2.0.8\INCLUDE\SDL_SYSTEM.H
E:\SETTING SOFTWARE SPACE\SDL LIBRARY\SDL2-2.0.8\INCLUDE\SDL_TIMER.H
E:\SETTING SOFTWARE SPACE\SDL LIBRARY\SDL2-2.0.8\INCLUDE\SDL_VERSION.H
C:\PROGRAM FILES (X86)\MICROSOFT VISUAL STUDIO 12.0\VC\INCLUDE\CMATH
C:\PROGRAM FILES (X86)\MICROSOFT VISUAL STUDIO 12.0\VC\INCLUDE\YVALS.H
C:\PROGRAM FILES (X86)\MICROSOFT VISUAL STUDIO 12.0\VC\INCLUDE\XKEYCHECK.H
C:\PROGRAM FILES (X86)\MICROSOFT VISUAL STUDIO 12.0\VC\INCLUDE\USE_ANSI.H
C:\PROGRAM FILES (X86)\MICROSOFT VISUAL STUDIO 12.0\VC\INCLUDE\MATH.H
C:\PROGRAM FILES (X86)\MICROSOFT VISUAL STUDIO 12.0\VC\INCLUDE\XTGMATH.H
C:\PROGRAM FILES (X86)\MICROSOFT VISUAL STUDIO 12.0\VC\INCLUDE\XTR1COMMON
C:\PROGRAM FILES (X86)\MICROSOFT VISUAL STUDIO 12.0\VC\INCLUDE\IOSTREAM
C:\PROGRAM FILES (X86)\MICROSOFT VISUAL STUDIO 12.0\VC\INCLUDE\ISTREAM
C:\PROGRAM FILES (X86)\MICROSOFT VISUAL STUDIO 12.0\VC\INCLUDE\OSTREAM
C:\PROGRAM FILES (X86)\MICROSOFT VISUAL STUDIO 12.0\VC\INCLUDE\IOS
C:\PROGRAM FILES (X86)\MICROSOFT VISUAL STUDIO 12.0\VC\INCLUDE\XLOCNUM
C:\PROGRAM FILES (X86)\MICROSOFT VISUAL STUDIO 12.0\VC\INCLUDE\CLIMITS
C:\PROGRAM FILES (X86)\MICROSOFT VISUAL STUDIO 12.0\VC\INCLUDE\LIMITS.H
C:\PROGRAM FILES (X86)\MICROSOFT VISUAL STUDIO 12.0\VC\INCLUDE\CSTDIO
C:\PROGRAM FILES (X86)\MICROSOFT VISUAL STUDIO 12.0\VC\INCLUDE\STDIO.H
C:\PROGRAM FILES (X86)\MICROSOFT VISUAL STUDIO 12.0\VC\INCLUDE\SWPRINTF.INL
C:\PROGRAM FILES (X86)\MICROSOFT VISUAL STUDIO 12.0\VC\INCLUDE\CSTDLIB
C:\PROGRAM FILES (X86)\MICROSOFT VISUAL STUDIO 12.0\VC\INCLUDE\STDLIB.H
C:\PROGRAM FILES (X86)\MICROSOFT VISUAL STUDIO 12.0\VC\INCLUDE\STREAMBUF
C:\PROGRAM FILES (X86)\MICROSOFT VISUAL STUDIO 12.0\VC\INCLUDE\XIOSBASE
C:\PROGRAM FILES (X86)\MICROSOFT VISUAL STUDIO 12.0\VC\INCLUDE\XLOCALE
C:\PROGRAM FILES (X86)\MICROSOFT VISUAL STUDIO 12.0\VC\INCLUDE\CSTRING
C:\PROGRAM FILES (X86)\MICROSOFT VISUAL STUDIO 12.0\VC\INCLUDE\STRING.H
C:\PROGRAM FILES (X86)\MICROSOFT VISUAL STUDIO 12.0\VC\INCLUDE\STDEXCEPT
C:\PROGRAM FILES (X86)\MICROSOFT VISUAL STUDIO 12.0\VC\INCLUDE\EXCEPTION
C:\PROGRAM FILES (X86)\MICROSOFT VISUAL STUDIO 12.0\VC\INCLUDE\XSTDDEF
C:\PROGRAM FILES (X86)\MICROSOFT VISUAL STUDIO 12.0\VC\INCLUDE\CSTDDEF
C:\PROGRAM FILES (X86)\MICROSOFT VISUAL STUDIO 12.0\VC\INCLUDE\INITIALIZER_LIST
C:\PROGRAM FILES (X86)\MICROSOFT VISUAL STUDIO 12.0\VC\INCLUDE\EH.H
C:\PROGRAM FILES (X86)\MICROSOFT VISUAL STUDIO 12.0\VC\INCLUDE\XSTRING
C:\PROGRAM FILES (X86)\MICROSOFT VISUAL STUDIO 12.0\VC\INCLUDE\XMEMORY0
C:\PROGRAM FILES (X86)\MICROSOFT VISUAL STUDIO 12.0\VC\INCLUDE\LIMITS
C:\PROGRAM FILES (X86)\MICROSOFT VISUAL STUDIO 12.0\VC\INCLUDE\YMATH.H
C:\PROGRAM FILES (X86)\MICROSOFT VISUAL STUDIO 12.0\VC\INCLUDE\CFLOAT
C:\PROGRAM FILES (X86)\MICROSOFT VISUAL STUDIO 12.0\VC\INCLUDE\FLOAT.H
C:\PROGRAM FILES (X86)\MICROSOFT VISUAL STUDIO 12.0\VC\INCLUDE\CRTWRN.H
C:\PROGRAM FILES (X86)\MICROSOFT VISUAL STUDIO 12.0\VC\INCLUDE\CWCHAR
C:\PROGRAM FILES (X86)\MICROSOFT VISUAL STUDIO 12.0\VC\INCLUDE\WCHAR.H
C:\PROGRAM FILES (X86)\MICROSOFT VISUAL STUDIO 12.0\VC\INCLUDE\WTIME.INL
C:\PROGRAM FILES (X86)\MICROSOFT VISUAL STUDIO 12.0\VC\INCLUDE\NEW
C:\PROGRAM FILES (X86)\MICROSOFT VISUAL STUDIO 12.0\VC\INCLUDE\XUTILITY
C:\PROGRAM FILES (X86)\MICROSOFT VISUAL STUDIO 12.0\VC\INCLUDE\UTILITY
C:\PROGRAM FILES (X86)\MICROSOFT VISUAL STUDIO 12.0\VC\INCLUDE\IOSFWD
C:\PROGRAM FILES (X86)\MICROSOFT VISUAL STUDIO 12.0\VC\INCLUDE\CRTDBG.H
C:\PROGRAM FILES (X86)\MICROSOFT VISUAL STUDIO 12.0\VC\INCLUDE\TYPE_TRAITS
C:\PROGRAM FILES (X86)\MICROSOFT VISUAL STUDIO 12.0\VC\INCLUDE\XREFWRAP
C:\PROGRAM FILES (X86)\MICROSOFT VISUAL STUDIO 12.0\VC\INCLUDE\XATOMIC0.H
C:\PROGRAM FILES (X86)\MICROSOFT VISUAL STUDIO 12.0\VC\INCLUDE\TYPEINFO
C:\PROGRAM FILES (X86)\MICROSOFT VISUAL STUDIO 12.0\VC\INCLUDE\XLOCINFO
C:\PROGRAM FILES (X86)\MICROSOFT VISUAL STUDIO 12.0\VC\INCLUDE\XLOCINFO.H
C:\PROGRAM FILES (X86)\MICROSOFT VISUAL STUDIO 12.0\VC\INCLUDE\CTYPE.H
C:\PROGRAM FILES (X86)\MICROSOFT VISUAL STUDIO 12.0\VC\INCLUDE\LOCALE.H
C:\PROGRAM FILES (X86)\MICROSOFT VISUAL STUDIO 12.0\VC\INCLUDE\XDEBUG
C:\PROGRAM FILES (X86)\MICROSOFT VISUAL STUDIO 12.0\VC\INCLUDE\XMEMORY
C:\PROGRAM FILES (X86)\MICROSOFT VISUAL STUDIO 12.0\VC\INCLUDE\XFACET
C:\PROGRAM FILES (X86)\MICROSOFT VISUAL STUDIO 12.0\VC\INCLUDE\SYSTEM_ERROR
C:\PROGRAM FILES (X86)\MICROSOFT VISUAL STUDIO 12.0\VC\INCLUDE\CERRNO
C:\PROGRAM FILES (X86)\MICROSOFT VISUAL STUDIO 12.0\VC\INCLUDE\ERRNO.H
C:\PROGRAM FILES (X86)\MICROSOFT VISUAL STUDIO 12.0\VC\INCLUDE\SHARE.H
^E:\SETTING SOFTWARE SPACE\SDL LIBRARY\16521615_CG\16521615_CG\CLIPPING.CPP
C:\PROGRAM FILES (X86)\MICROSOFT VISUAL STUDIO 12.0\VC\INCLUDE\CMATH
C:\PROGRAM FILES (X86)\MICROSOFT VISUAL STUDIO 12.0\VC\INCLUDE\YVALS.H
C:\PROGRAM FILES (X86)\MICROSOFT VISUAL STUDIO 12.0\VC\INCLUDE\XKEYCHECK.H
C:\PROGRAM FILES (X86)\MICROSOFT VISUAL STUDIO 12.0\VC\INCLUDE\CRTDEFS.H
C:\PROGRAM FILES (X86)\MICROSOFT VISUAL STUDIO 12.0\VC\INCLUDE\SAL.H
C:\PROGRAM FILES (X86)\MICROSOFT VISUAL STUDIO 12.0\VC\INCLUDE\CONCURRENCYSAL.H
C:\PROGRAM FILES (X86)\MICROSOFT VISUAL STUDIO 12.0\VC\INCLUDE\VADEFS.H
C:\PROGRAM FILES (X86)\MICROSOFT VISUAL STUDIO 12.0\VC\INCLUDE\USE_ANSI.H
C:\PROGRAM FILES (X86)\MICROSOFT VISUAL STUDIO 12.0\VC\INCLUDE\MATH.H
C:\PROGRAM FILES (X86)\MICROSOFT VISUAL STUDIO 12.0\VC\INCLUDE\XTGMATH.H
C:\PROGRAM FILES (X86)\MICROSOFT VISUAL STUDIO 12.0\VC\INCLUDE\XTR1COMMON
^E:\SETTING SOFTWARE SPACE\SDL LIBRARY\16521615_CG\16521615_CG\DEMO.CPP
C:\PROGRAM FILES (X86)\MICROSOFT VISUAL STUDIO 12.0\VC\BIN\1033\CLUI.DLL
C:\WINDOWS\GLOBALIZATION\SORTING\SORTDEFAULT.NLS
C:\PROGRAM FILES (X86)\MICROSOFT VISUAL STUDIO 12.0\VC\BIN\MSPDBSRV.EXE
C:\WINDOWS\SYSTEM32\TZRES.DLL
C:\PROGRAM FILES (X86)\MICROSOFT VISUAL STUDIO 12.0\VC\INCLUDE\IOSTREAM
C:\PROGRAM FILES (X86)\MICROSOFT VISUAL STUDIO 12.0\VC\INCLUDE\ISTREAM
C:\PROGRAM FILES (X86)\MICROSOFT VISUAL STUDIO 12.0\VC\INCLUDE\OSTREAM
C:\PROGRAM FILES (X86)\MICROSOFT VISUAL STUDIO 12.0\VC\INCLUDE\IOS
C:\PROGRAM FILES (X86)\MICROSOFT VISUAL STUDIO 12.0\VC\INCLUDE\XLOCNUM
C:\PROGRAM FILES (X86)\MICROSOFT VISUAL STUDIO 12.0\VC\INCLUDE\CLIMITS
C:\PROGRAM FILES (X86)\MICROSOFT VISUAL STUDIO 12.0\VC\INCLUDE\YVALS.H
C:\PROGRAM FILES (X86)\MICROSOFT VISUAL STUDIO 12.0\VC\INCLUDE\XKEYCHECK.H
C:\PROGRAM FILES (X86)\MICROSOFT VISUAL STUDIO 12.0\VC\INCLUDE\CRTDEFS.H
C:\PROGRAM FILES (X86)\MICROSOFT VISUAL STUDIO 12.0\VC\INCLUDE\SAL.H
C:\PROGRAM FILES (X86)\MICROSOFT VISUAL STUDIO 12.0\VC\INCLUDE\CONCURRENCYSAL.H
C:\PROGRAM FILES (X86)\MICROSOFT VISUAL STUDIO 12.0\VC\INCLUDE\VADEFS.H
C:\PROGRAM FILES (X86)\MICROSOFT VISUAL STUDIO 12.0\VC\INCLUDE\USE_ANSI.H
C:\PROGRAM FILES (X86)\MICROSOFT VISUAL STUDIO 12.0\VC\INCLUDE\LIMITS.H
C:\PROGRAM FILES (X86)\MICROSOFT VISUAL STUDIO 12.0\VC\INCLUDE\CMATH
C:\PROGRAM FILES (X86)\MICROSOFT VISUAL STUDIO 12.0\VC\INCLUDE\MATH.H
C:\PROGRAM FILES (X86)\MICROSOFT VISUAL STUDIO 12.0\VC\INCLUDE\XTGMATH.H
C:\PROGRAM FILES (X86)\MICROSOFT VISUAL STUDIO 12.0\VC\INCLUDE\XTR1COMMON
C:\PROGRAM FILES (X86)\MICROSOFT VISUAL STUDIO 12.0\VC\INCLUDE\CSTDIO
C:\PROGRAM FILES (X86)\MICROSOFT VISUAL STUDIO 12.0\VC\INCLUDE\STDIO.H
C:\PROGRAM FILES (X86)\MICROSOFT VISUAL STUDIO 12.0\VC\INCLUDE\SWPRINTF.INL
C:\PROGRAM FILES (X86)\MICROSOFT VISUAL STUDIO 12.0\VC\INCLUDE\CSTDLIB
C:\PROGRAM FILES (X86)\MICROSOFT VISUAL STUDIO 12.0\VC\INCLUDE\STDLIB.H
C:\PROGRAM FILES (X86)\MICROSOFT VISUAL STUDIO 12.0\VC\INCLUDE\STREAMBUF
C:\PROGRAM FILES (X86)\MICROSOFT VISUAL STUDIO 12.0\VC\INCLUDE\XIOSBASE
C:\PROGRAM FILES (X86)\MICROSOFT VISUAL STUDIO 12.0\VC\INCLUDE\XLOCALE
C:\PROGRAM FILES (X86)\MICROSOFT VISUAL STUDIO 12.0\VC\INCLUDE\CSTRING
C:\PROGRAM FILES (X86)\MICROSOFT VISUAL STUDIO 12.0\VC\INCLUDE\STRING.H
C:\PROGRAM FILES (X86)\MICROSOFT VISUAL STUDIO 12.0\VC\INCLUDE\STDEXCEPT
C:\PROGRAM FILES (X86)\MICROSOFT VISUAL STUDIO 12.0\VC\INCLUDE\EXCEPTION
C:\PROGRAM FILES (X86)\MICROSOFT VISUAL STUDIO 12.0\VC\INCLUDE\XSTDDEF
C:\PROGRAM FILES (X86)\MICROSOFT VISUAL STUDIO 12.0\VC\INCLUDE\CSTDDEF
C:\PROGRAM FILES (X86)\MICROSOFT VISUAL STUDIO 12.0\VC\INCLUDE\STDDEF.H
C:\PROGRAM FILES (X86)\MICROSOFT VISUAL STUDIO 12.0\VC\INCLUDE\INITIALIZER_LIST
C:\PROGRAM FILES (X86)\MICROSOFT VISUAL STUDIO 12.0\VC\INCLUDE\EH.H
C:\PROGRAM FILES (X86)\MICROSOFT VISUAL STUDIO 12.0\VC\INCLUDE\MALLOC.H
C:\PROGRAM FILES (X86)\MICROSOFT VISUAL STUDIO 12.0\VC\INCLUDE\XSTRING
C:\PROGRAM FILES (X86)\MICROSOFT VISUAL STUDIO 12.0\VC\INCLUDE\XMEMORY0
C:\PROGRAM FILES (X86)\MICROSOFT VISUAL STUDIO 12.0\VC\INCLUDE\LIMITS
C:\PROGRAM FILES (X86)\MICROSOFT VISUAL STUDIO 12.0\VC\INCLUDE\YMATH.H
C:\PROGRAM FILES (X86)\MICROSOFT VISUAL STUDIO 12.0\VC\INCLUDE\CFLOAT
C:\PROGRAM FILES (X86)\MICROSOFT VISUAL STUDIO 12.0\VC\INCLUDE\FLOAT.H
C:\PROGRAM FILES (X86)\MICROSOFT VISUAL STUDIO 12.0\VC\INCLUDE\CRTWRN.H
C:\PROGRAM FILES (X86)\MICROSOFT VISUAL STUDIO 12.0\VC\INCLUDE\CWCHAR
C:\PROGRAM FILES (X86)\MICROSOFT VISUAL STUDIO 12.0\VC\INCLUDE\WCHAR.H
C:\PROGRAM FILES (X86)\MICROSOFT VISUAL STUDIO 12.0\VC\INCLUDE\WTIME.INL
C:\PROGRAM FILES (X86)\MICROSOFT VISUAL STUDIO 12.0\VC\INCLUDE\NEW
C:\PROGRAM FILES (X86)\MICROSOFT VISUAL STUDIO 12.0\VC\INCLUDE\XUTILITY
C:\PROGRAM FILES (X86)\MICROSOFT VISUAL STUDIO 12.0\VC\INCLUDE\UTILITY
C:\PROGRAM FILES (X86)\MICROSOFT VISUAL STUDIO 12.0\VC\INCLUDE\IOSFWD
C:\PROGRAM FILES (X86)\MICROSOFT VISUAL STUDIO 12.0\VC\INCLUDE\CRTDBG.H
C:\PROGRAM FILES (X86)\MICROSOFT VISUAL STUDIO 12.0\VC\INCLUDE\TYPE_TRAITS
C:\PROGRAM FILES (X86)\MICROSOFT VISUAL STUDIO 12.0\VC\INCLUDE\XREFWRAP
C:\PROGRAM FILES (X86)\MICROSOFT VISUAL STUDIO 12.0\VC\INCLUDE\XATOMIC0.H
C:\PROGRAM FILES (X86)\MICROSOFT VISUAL STUDIO 12.0\VC\INCLUDE\INTRIN.H
C:\PROGRAM FILES (X86)\MICROSOFT VISUAL STUDIO 12.0\VC\INCLUDE\SETJMP.H
C:\PROGRAM FILES (X86)\MICROSOFT VISUAL STUDIO 12.0\VC\INCLUDE\IMMINTRIN.H
C:\PROGRAM FILES (X86)\MICROSOFT VISUAL STUDIO 12.0\VC\INCLUDE\WMMINTRIN.H
C:\PROGRAM FILES (X86)\MICROSOFT VISUAL STUDIO 12.0\VC\INCLUDE\NMMINTRIN.H
C:\PROGRAM FILES (X86)\MICROSOFT VISUAL STUDIO 12.0\VC\INCLUDE\SMMINTRIN.H
C:\PROGRAM FILES (X86)\MICROSOFT VISUAL STUDIO 12.0\VC\INCLUDE\TMMINTRIN.H
C:\PROGRAM FILES (X86)\MICROSOFT VISUAL STUDIO 12.0\VC\INCLUDE\PMMINTRIN.H
C:\PROGRAM FILES (X86)\MICROSOFT VISUAL STUDIO 12.0\VC\INCLUDE\EMMINTRIN.H
C:\PROGRAM FILES (X86)\MICROSOFT VISUAL STUDIO 12.0\VC\INCLUDE\XMMINTRIN.H
C:\PROGRAM FILES (X86)\MICROSOFT VISUAL STUDIO 12.0\VC\INCLUDE\MMINTRIN.H
C:\PROGRAM FILES (X86)\MICROSOFT VISUAL STUDIO 12.0\VC\INCLUDE\AMMINTRIN.H
C:\PROGRAM FILES (X86)\MICROSOFT VISUAL STUDIO 12.0\VC\INCLUDE\MM3DNOW.H
C:\PROGRAM FILES (X86)\MICROSOFT VISUAL STUDIO 12.0\VC\INCLUDE\TYPEINFO
C:\PROGRAM FILES (X86)\MICROSOFT VISUAL STUDIO 12.0\VC\INCLUDE\XLOCINFO
C:\PROGRAM FILES (X86)\MICROSOFT VISUAL STUDIO 12.0\VC\INCLUDE\XLOCINFO.H
C:\PROGRAM FILES (X86)\MICROSOFT VISUAL STUDIO 12.0\VC\INCLUDE\CTYPE.H
C:\PROGRAM FILES (X86)\MICROSOFT VISUAL STUDIO 12.0\VC\INCLUDE\LOCALE.H
C:\PROGRAM FILES (X86)\MICROSOFT VISUAL STUDIO 12.0\VC\INCLUDE\XDEBUG
C:\PROGRAM FILES (X86)\MICROSOFT VISUAL STUDIO 12.0\VC\INCLUDE\XMEMORY
C:\PROGRAM FILES (X86)\MICROSOFT VISUAL STUDIO 12.0\VC\INCLUDE\XFACET
C:\PROGRAM FILES (X86)\MICROSOFT VISUAL STUDIO 12.0\VC\INCLUDE\SYSTEM_ERROR
C:\PROGRAM FILES (X86)\MICROSOFT VISUAL STUDIO 12.0\VC\INCLUDE\CERRNO
C:\PROGRAM FILES (X86)\MICROSOFT VISUAL STUDIO 12.0\VC\INCLUDE\ERRNO.H
C:\PROGRAM FILES (X86)\MICROSOFT VISUAL STUDIO 12.0\VC\INCLUDE\SHARE.H
^E:\DOWNLOADED FILES\FRAMEWORK-CG-MASTER-62A8BC4E5B554E811249B72281CE297F3C45607C\FRAMEWORK-CG-MASTER-62A8BC4E5B554E811249B72281CE297F3C45607C\PARABOL.CPP
E:\DOWNLOADED FILES\FRAMEWORK-CG-MASTER-62A8BC4E5B554E811249B72281CE297F3C45607C\FRAMEWORK-CG-MASTER-62A8BC4E5B554E811249B72281CE297F3C45607C\PARABOL.H
E:\SETTING SOFTWARE SPACE\SDL LIBRARY\SDL2-2.0.8\INCLUDE\SDL.H
E:\SETTING SOFTWARE SPACE\SDL LIBRARY\SDL2-2.0.8\INCLUDE\SDL_MAIN.H
E:\SETTING SOFTWARE SPACE\SDL LIBRARY\SDL2-2.0.8\INCLUDE\SDL_STDINC.H
E:\SETTING SOFTWARE SPACE\SDL LIBRARY\SDL2-2.0.8\INCLUDE\SDL_CONFIG.H
E:\SETTING SOFTWARE SPACE\SDL LIBRARY\SDL2-2.0.8\INCLUDE\SDL_PLATFORM.H
C:\PROGRAM FILES (X86)\WINDOWS KITS\8.1\INCLUDE\SHARED\WINAPIFAMILY.H
E:\SETTING SOFTWARE SPACE\SDL LIBRARY\SDL2-2.0.8\INCLUDE\BEGIN_CODE.H
E:\SETTING SOFTWARE SPACE\SDL LIBRARY\SDL2-2.0.8\INCLUDE\CLOSE_CODE.H
C:\PROGRAM FILES (X86)\MICROSOFT VISUAL STUDIO 12.0\VC\INCLUDE\STDDEF.H
C:\PROGRAM FILES (X86)\MICROSOFT VISUAL STUDIO 12.0\VC\INCLUDE\CRTDEFS.H
C:\PROGRAM FILES (X86)\MICROSOFT VISUAL STUDIO 12.0\VC\INCLUDE\SAL.H
C:\PROGRAM FILES (X86)\MICROSOFT VISUAL STUDIO 12.0\VC\INCLUDE\CONCURRENCYSAL.H
C:\PROGRAM FILES (X86)\MICROSOFT VISUAL STUDIO 12.0\VC\INCLUDE\VADEFS.H
C:\PROGRAM FILES (X86)\MICROSOFT VISUAL STUDIO 12.0\VC\INCLUDE\STDARG.H
E:\SETTING SOFTWARE SPACE\SDL LIBRARY\SDL2-2.0.8\INCLUDE\SDL_ASSERT.H
E:\SETTING SOFTWARE SPACE\SDL LIBRARY\SDL2-2.0.8\INCLUDE\SDL_ATOMIC.H
E:\SETTING SOFTWARE SPACE\SDL LIBRARY\SDL2-2.0.8\INCLUDE\SDL_AUDIO.H
E:\SETTING SOFTWARE SPACE\SDL LIBRARY\SDL2-2.0.8\INCLUDE\SDL_ERROR.H
E:\SETTING SOFTWARE SPACE\SDL LIBRARY\SDL2-2.0.8\INCLUDE\SDL_ENDIAN.H
E:\SETTING SOFTWARE SPACE\SDL LIBRARY\SDL2-2.0.8\INCLUDE\SDL_MUTEX.H
E:\SETTING SOFTWARE SPACE\SDL LIBRARY\SDL2-2.0.8\INCLUDE\SDL_THREAD.H
C:\PROGRAM FILES (X86)\MICROSOFT VISUAL STUDIO 12.0\VC\INCLUDE\PROCESS.H
E:\SETTING SOFTWARE SPACE\SDL LIBRARY\SDL2-2.0.8\INCLUDE\SDL_RWOPS.H
E:\SETTING SOFTWARE SPACE\SDL LIBRARY\SDL2-2.0.8\INCLUDE\SDL_CLIPBOARD.H
E:\SETTING SOFTWARE SPACE\SDL LIBRARY\SDL2-2.0.8\INCLUDE\SDL_CPUINFO.H
C:\PROGRAM FILES (X86)\MICROSOFT VISUAL STUDIO 12.0\VC\INCLUDE\INTRIN.H
C:\PROGRAM FILES (X86)\MICROSOFT VISUAL STUDIO 12.0\VC\INCLUDE\SETJMP.H
C:\PROGRAM FILES (X86)\MICROSOFT VISUAL STUDIO 12.0\VC\INCLUDE\IMMINTRIN.H
C:\PROGRAM FILES (X86)\MICROSOFT VISUAL STUDIO 12.0\VC\INCLUDE\WMMINTRIN.H
C:\PROGRAM FILES (X86)\MICROSOFT VISUAL STUDIO 12.0\VC\INCLUDE\NMMINTRIN.H
C:\PROGRAM FILES (X86)\MICROSOFT VISUAL STUDIO 12.0\VC\INCLUDE\SMMINTRIN.H
C:\PROGRAM FILES (X86)\MICROSOFT VISUAL STUDIO 12.0\VC\INCLUDE\TMMINTRIN.H
C:\PROGRAM FILES (X86)\MICROSOFT VISUAL STUDIO 12.0\VC\INCLUDE\PMMINTRIN.H
C:\PROGRAM FILES (X86)\MICROSOFT VISUAL STUDIO 12.0\VC\INCLUDE\EMMINTRIN.H
C:\PROGRAM FILES (X86)\MICROSOFT VISUAL STUDIO 12.0\VC\INCLUDE\XMMINTRIN.H
C:\PROGRAM FILES (X86)\MICROSOFT VISUAL STUDIO 12.0\VC\INCLUDE\MMINTRIN.H
C:\PROGRAM FILES (X86)\MICROSOFT VISUAL STUDIO 12.0\VC\INCLUDE\MALLOC.H
C:\PROGRAM FILES (X86)\MICROSOFT VISUAL STUDIO 12.0\VC\INCLUDE\AMMINTRIN.H
C:\PROGRAM FILES (X86)\MICROSOFT VISUAL STUDIO 12.0\VC\INCLUDE\MM3DNOW.H
E:\SETTING SOFTWARE SPACE\SDL LIBRARY\SDL2-2.0.8\INCLUDE\SDL_EVENTS.H
E:\SETTING SOFTWARE SPACE\SDL LIBRARY\SDL2-2.0.8\INCLUDE\SDL_VIDEO.H
E:\SETTING SOFTWARE SPACE\SDL LIBRARY\SDL2-2.0.8\INCLUDE\SDL_PIXELS.H
E:\SETTING SOFTWARE SPACE\SDL LIBRARY\SDL2-2.0.8\INCLUDE\SDL_RECT.H
E:\SETTING SOFTWARE SPACE\SDL LIBRARY\SDL2-2.0.8\INCLUDE\SDL_SURFACE.H
E:\SETTING SOFTWARE SPACE\SDL LIBRARY\SDL2-2.0.8\INCLUDE\SDL_BLENDMODE.H
E:\SETTING SOFTWARE SPACE\SDL LIBRARY\SDL2-2.0.8\INCLUDE\SDL_KEYBOARD.H
E:\SETTING SOFTWARE SPACE\SDL LIBRARY\SDL2-2.0.8\INCLUDE\SDL_KEYCODE.H
E:\SETTING SOFTWARE SPACE\SDL LIBRARY\SDL2-2.0.8\INCLUDE\SDL_SCANCODE.H
E:\SETTING SOFTWARE SPACE\SDL LIBRARY\SDL2-2.0.8\INCLUDE\SDL_MOUSE.H
E:\SETTING SOFTWARE SPACE\SDL LIBRARY\SDL2-2.0.8\INCLUDE\SDL_JOYSTICK.H
E:\SETTING SOFTWARE SPACE\SDL LIBRARY\SDL2-2.0.8\INCLUDE\SDL_GAMECONTROLLER.H
E:\SETTING SOFTWARE SPACE\SDL LIBRARY\SDL2-2.0.8\INCLUDE\SDL_QUIT.H
E:\SETTING SOFTWARE SPACE\SDL LIBRARY\SDL2-2.0.8\INCLUDE\SDL_GESTURE.H
E:\SETTING SOFTWARE SPACE\SDL LIBRARY\SDL2-2.0.8\INCLUDE\SDL_TOUCH.H
E:\SETTING SOFTWARE SPACE\SDL LIBRARY\SDL2-2.0.8\INCLUDE\SDL_FILESYSTEM.H
E:\SETTING SOFTWARE SPACE\SDL LIBRARY\SDL2-2.0.8\INCLUDE\SDL_HAPTIC.H
E:\SETTING SOFTWARE SPACE\SDL LIBRARY\SDL2-2.0.8\INCLUDE\SDL_HINTS.H
E:\SETTING SOFTWARE SPACE\SDL LIBRARY\SDL2-2.0.8\INCLUDE\SDL_LOADSO.H
E:\SETTING SOFTWARE SPACE\SDL LIBRARY\SDL2-2.0.8\INCLUDE\SDL_LOG.H
E:\SETTING SOFTWARE SPACE\SDL LIBRARY\SDL2-2.0.8\INCLUDE\SDL_MESSAGEBOX.H
E:\SETTING SOFTWARE SPACE\SDL LIBRARY\SDL2-2.0.8\INCLUDE\SDL_POWER.H
E:\SETTING SOFTWARE SPACE\SDL LIBRARY\SDL2-2.0.8\INCLUDE\SDL_RENDER.H
E:\SETTING SOFTWARE SPACE\SDL LIBRARY\SDL2-2.0.8\INCLUDE\SDL_SHAPE.H
E:\SETTING SOFTWARE SPACE\SDL LIBRARY\SDL2-2.0.8\INCLUDE\SDL_SYSTEM.H
E:\SETTING SOFTWARE SPACE\SDL LIBRARY\SDL2-2.0.8\INCLUDE\SDL_TIMER.H
E:\SETTING SOFTWARE SPACE\SDL LIBRARY\SDL2-2.0.8\INCLUDE\SDL_VERSION.H
C:\PROGRAM FILES (X86)\MICROSOFT VISUAL STUDIO 12.0\VC\INCLUDE\IOSTREAM
C:\PROGRAM FILES (X86)\MICROSOFT VISUAL STUDIO 12.0\VC\INCLUDE\ISTREAM
C:\PROGRAM FILES (X86)\MICROSOFT VISUAL STUDIO 12.0\VC\INCLUDE\OSTREAM
C:\PROGRAM FILES (X86)\MICROSOFT VISUAL STUDIO 12.0\VC\INCLUDE\IOS
C:\PROGRAM FILES (X86)\MICROSOFT VISUAL STUDIO 12.0\VC\INCLUDE\XLOCNUM
C:\PROGRAM FILES (X86)\MICROSOFT VISUAL STUDIO 12.0\VC\INCLUDE\CLIMITS
C:\PROGRAM FILES (X86)\MICROSOFT VISUAL STUDIO 12.0\VC\INCLUDE\YVALS.H
C:\PROGRAM FILES (X86)\MICROSOFT VISUAL STUDIO 12.0\VC\INCLUDE\XKEYCHECK.H
C:\PROGRAM FILES (X86)\MICROSOFT VISUAL STUDIO 12.0\VC\INCLUDE\USE_ANSI.H
C:\PROGRAM FILES (X86)\MICROSOFT VISUAL STUDIO 12.0\VC\INCLUDE\LIMITS.H
C:\PROGRAM FILES (X86)\MICROSOFT VISUAL STUDIO 12.0\VC\INCLUDE\CMATH
C:\PROGRAM FILES (X86)\MICROSOFT VISUAL STUDIO 12.0\VC\INCLUDE\MATH.H
C:\PROGRAM FILES (X86)\MICROSOFT VISUAL STUDIO 12.0\VC\INCLUDE\XTGMATH.H
C:\PROGRAM FILES (X86)\MICROSOFT VISUAL STUDIO 12.0\VC\INCLUDE\XTR1COMMON
C:\PROGRAM FILES (X86)\MICROSOFT VISUAL STUDIO 12.0\VC\INCLUDE\CSTDIO
C:\PROGRAM FILES (X86)\MICROSOFT VISUAL STUDIO 12.0\VC\INCLUDE\STDIO.H
C:\PROGRAM FILES (X86)\MICROSOFT VISUAL STUDIO 12.0\VC\INCLUDE\SWPRINTF.INL
C:\PROGRAM FILES (X86)\MICROSOFT VISUAL STUDIO 12.0\VC\INCLUDE\CSTDLIB
C:\PROGRAM FILES (X86)\MICROSOFT VISUAL STUDIO 12.0\VC\INCLUDE\STDLIB.H
C:\PROGRAM FILES (X86)\MICROSOFT VISUAL STUDIO 12.0\VC\INCLUDE\STREAMBUF
C:\PROGRAM FILES (X86)\MICROSOFT VISUAL STUDIO 12.0\VC\INCLUDE\XIOSBASE
C:\PROGRAM FILES (X86)\MICROSOFT VISUAL STUDIO 12.0\VC\INCLUDE\XLOCALE
C:\PROGRAM FILES (X86)\MICROSOFT VISUAL STUDIO 12.0\VC\INCLUDE\CSTRING
C:\PROGRAM FILES (X86)\MICROSOFT VISUAL STUDIO 12.0\VC\INCLUDE\STRING.H
C:\PROGRAM FILES (X86)\MICROSOFT VISUAL STUDIO 12.0\VC\INCLUDE\STDEXCEPT
C:\PROGRAM FILES (X86)\MICROSOFT VISUAL STUDIO 12.0\VC\INCLUDE\EXCEPTION
C:\PROGRAM FILES (X86)\MICROSOFT VISUAL STUDIO 12.0\VC\INCLUDE\XSTDDEF
C:\PROGRAM FILES (X86)\MICROSOFT VISUAL STUDIO 12.0\VC\INCLUDE\CSTDDEF
C:\PROGRAM FILES (X86)\MICROSOFT VISUAL STUDIO 12.0\VC\INCLUDE\INITIALIZER_LIST
C:\PROGRAM FILES (X86)\MICROSOFT VISUAL STUDIO 12.0\VC\INCLUDE\EH.H
C:\PROGRAM FILES (X86)\MICROSOFT VISUAL STUDIO 12.0\VC\INCLUDE\XSTRING
C:\PROGRAM FILES (X86)\MICROSOFT VISUAL STUDIO 12.0\VC\INCLUDE\XMEMORY0
C:\PROGRAM FILES (X86)\MICROSOFT VISUAL STUDIO 12.0\VC\INCLUDE\LIMITS
C:\PROGRAM FILES (X86)\MICROSOFT VISUAL STUDIO 12.0\VC\INCLUDE\YMATH.H
C:\PROGRAM FILES (X86)\MICROSOFT VISUAL STUDIO 12.0\VC\INCLUDE\CFLOAT
C:\PROGRAM FILES (X86)\MICROSOFT VISUAL STUDIO 12.0\VC\INCLUDE\FLOAT.H
C:\PROGRAM FILES (X86)\MICROSOFT VISUAL STUDIO 12.0\VC\INCLUDE\CRTWRN.H
C:\PROGRAM FILES (X86)\MICROSOFT VISUAL STUDIO 12.0\VC\INCLUDE\CWCHAR
C:\PROGRAM FILES (X86)\MICROSOFT VISUAL STUDIO 12.0\VC\INCLUDE\WCHAR.H
C:\PROGRAM FILES (X86)\MICROSOFT VISUAL STUDIO 12.0\VC\INCLUDE\WTIME.INL
C:\PROGRAM FILES (X86)\MICROSOFT VISUAL STUDIO 12.0\VC\INCLUDE\NEW
C:\PROGRAM FILES (X86)\MICROSOFT VISUAL STUDIO 12.0\VC\INCLUDE\XUTILITY
C:\PROGRAM FILES (X86)\MICROSOFT VISUAL STUDIO 12.0\VC\INCLUDE\UTILITY
C:\PROGRAM FILES (X86)\MICROSOFT VISUAL STUDIO 12.0\VC\INCLUDE\IOSFWD
C:\PROGRAM FILES (X86)\MICROSOFT VISUAL STUDIO 12.0\VC\INCLUDE\CRTDBG.H
C:\PROGRAM FILES (X86)\MICROSOFT VISUAL STUDIO 12.0\VC\INCLUDE\TYPE_TRAITS
C:\PROGRAM FILES (X86)\MICROSOFT VISUAL STUDIO 12.0\VC\INCLUDE\XREFWRAP
C:\PROGRAM FILES (X86)\MICROSOFT VISUAL STUDIO 12.0\VC\INCLUDE\XATOMIC0.H
C:\PROGRAM FILES (X86)\MICROSOFT VISUAL STUDIO 12.0\VC\INCLUDE\TYPEINFO
C:\PROGRAM FILES (X86)\MICROSOFT VISUAL STUDIO 12.0\VC\INCLUDE\XLOCINFO
C:\PROGRAM FILES (X86)\MICROSOFT VISUAL STUDIO 12.0\VC\INCLUDE\XLOCINFO.H
C:\PROGRAM FILES (X86)\MICROSOFT VISUAL STUDIO 12.0\VC\INCLUDE\CTYPE.H
C:\PROGRAM FILES (X86)\MICROSOFT VISUAL STUDIO 12.0\VC\INCLUDE\LOCALE.H
C:\PROGRAM FILES (X86)\MICROSOFT VISUAL STUDIO 12.0\VC\INCLUDE\XDEBUG
C:\PROGRAM FILES (X86)\MICROSOFT VISUAL STUDIO 12.0\VC\INCLUDE\XMEMORY
C:\PROGRAM FILES (X86)\MICROSOFT VISUAL STUDIO 12.0\VC\INCLUDE\XFACET
C:\PROGRAM FILES (X86)\MICROSOFT VISUAL STUDIO 12.0\VC\INCLUDE\SYSTEM_ERROR
C:\PROGRAM FILES (X86)\MICROSOFT VISUAL STUDIO 12.0\VC\INCLUDE\CERRNO
C:\PROGRAM FILES (X86)\MICROSOFT VISUAL STUDIO 12.0\VC\INCLUDE\ERRNO.H
C:\PROGRAM FILES (X86)\MICROSOFT VISUAL STUDIO 12.0\VC\INCLUDE\SHARE.H
^E:\DOWNLOADED FILES\FRAMEWORK-CG-MASTER-62A8BC4E5B554E811249B72281CE297F3C45607C\FRAMEWORK-CG-MASTER-62A8BC4E5B554E811249B72281CE297F3C45607C\MAIN.CPP
C:\PROGRAM FILES (X86)\MICROSOFT VISUAL STUDIO 12.0\VC\INCLUDE\IOSTREAM
C:\PROGRAM FILES (X86)\MICROSOFT VISUAL STUDIO 12.0\VC\INCLUDE\ISTREAM
C:\PROGRAM FILES (X86)\MICROSOFT VISUAL STUDIO 12.0\VC\INCLUDE\OSTREAM
C:\PROGRAM FILES (X86)\MICROSOFT VISUAL STUDIO 12.0\VC\INCLUDE\IOS
C:\PROGRAM FILES (X86)\MICROSOFT VISUAL STUDIO 12.0\VC\INCLUDE\XLOCNUM
C:\PROGRAM FILES (X86)\MICROSOFT VISUAL STUDIO 12.0\VC\INCLUDE\CLIMITS
C:\PROGRAM FILES (X86)\MICROSOFT VISUAL STUDIO 12.0\VC\INCLUDE\YVALS.H
C:\PROGRAM FILES (X86)\MICROSOFT VISUAL STUDIO 12.0\VC\INCLUDE\XKEYCHECK.H
C:\PROGRAM FILES (X86)\MICROSOFT VISUAL STUDIO 12.0\VC\INCLUDE\CRTDEFS.H
C:\PROGRAM FILES (X86)\MICROSOFT VISUAL STUDIO 12.0\VC\INCLUDE\SAL.H
C:\PROGRAM FILES (X86)\MICROSOFT VISUAL STUDIO 12.0\VC\INCLUDE\CONCURRENCYSAL.H
C:\PROGRAM FILES (X86)\MICROSOFT VISUAL STUDIO 12.0\VC\INCLUDE\VADEFS.H
C:\PROGRAM FILES (X86)\MICROSOFT VISUAL STUDIO 12.0\VC\INCLUDE\USE_ANSI.H
C:\PROGRAM FILES (X86)\MICROSOFT VISUAL STUDIO 12.0\VC\INCLUDE\LIMITS.H
C:\PROGRAM FILES (X86)\MICROSOFT VISUAL STUDIO 12.0\VC\INCLUDE\CMATH
C:\PROGRAM FILES (X86)\MICROSOFT VISUAL STUDIO 12.0\VC\INCLUDE\MATH.H
C:\PROGRAM FILES (X86)\MICROSOFT VISUAL STUDIO 12.0\VC\INCLUDE\XTGMATH.H
C:\PROGRAM FILES (X86)\MICROSOFT VISUAL STUDIO 12.0\VC\INCLUDE\XTR1COMMON
C:\PROGRAM FILES (X86)\MICROSOFT VISUAL STUDIO 12.0\VC\INCLUDE\CSTDIO
C:\PROGRAM FILES (X86)\MICROSOFT VISUAL STUDIO 12.0\VC\INCLUDE\STDIO.H
C:\PROGRAM FILES (X86)\MICROSOFT VISUAL STUDIO 12.0\VC\INCLUDE\SWPRINTF.INL
C:\PROGRAM FILES (X86)\MICROSOFT VISUAL STUDIO 12.0\VC\INCLUDE\CSTDLIB
C:\PROGRAM FILES (X86)\MICROSOFT VISUAL STUDIO 12.0\VC\INCLUDE\STDLIB.H
C:\PROGRAM FILES (X86)\MICROSOFT VISUAL STUDIO 12.0\VC\INCLUDE\STREAMBUF
C:\PROGRAM FILES (X86)\MICROSOFT VISUAL STUDIO 12.0\VC\INCLUDE\XIOSBASE
C:\PROGRAM FILES (X86)\MICROSOFT VISUAL STUDIO 12.0\VC\INCLUDE\XLOCALE
C:\PROGRAM FILES (X86)\MICROSOFT VISUAL STUDIO 12.0\VC\INCLUDE\CSTRING
C:\PROGRAM FILES (X86)\MICROSOFT VISUAL STUDIO 12.0\VC\INCLUDE\STRING.H
C:\PROGRAM FILES (X86)\MICROSOFT VISUAL STUDIO 12.0\VC\INCLUDE\STDEXCEPT
C:\PROGRAM FILES (X86)\MICROSOFT VISUAL STUDIO 12.0\VC\INCLUDE\EXCEPTION
C:\PROGRAM FILES (X86)\MICROSOFT VISUAL STUDIO 12.0\VC\INCLUDE\XSTDDEF
C:\PROGRAM FILES (X86)\MICROSOFT VISUAL STUDIO 12.0\VC\INCLUDE\CSTDDEF
C:\PROGRAM FILES (X86)\MICROSOFT VISUAL STUDIO 12.0\VC\INCLUDE\STDDEF.H
C:\PROGRAM FILES (X86)\MICROSOFT VISUAL STUDIO 12.0\VC\INCLUDE\INITIALIZER_LIST
C:\PROGRAM FILES (X86)\MICROSOFT VISUAL STUDIO 12.0\VC\INCLUDE\EH.H
C:\PROGRAM FILES (X86)\MICROSOFT VISUAL STUDIO 12.0\VC\INCLUDE\MALLOC.H
C:\PROGRAM FILES (X86)\MICROSOFT VISUAL STUDIO 12.0\VC\INCLUDE\XSTRING
C:\PROGRAM FILES (X86)\MICROSOFT VISUAL STUDIO 12.0\VC\INCLUDE\XMEMORY0
C:\PROGRAM FILES (X86)\MICROSOFT VISUAL STUDIO 12.0\VC\INCLUDE\LIMITS
C:\PROGRAM FILES (X86)\MICROSOFT VISUAL STUDIO 12.0\VC\INCLUDE\YMATH.H
C:\PROGRAM FILES (X86)\MICROSOFT VISUAL STUDIO 12.0\VC\INCLUDE\CFLOAT
C:\PROGRAM FILES (X86)\MICROSOFT VISUAL STUDIO 12.0\VC\INCLUDE\FLOAT.H
C:\PROGRAM FILES (X86)\MICROSOFT VISUAL STUDIO 12.0\VC\INCLUDE\CRTWRN.H
C:\PROGRAM FILES (X86)\MICROSOFT VISUAL STUDIO 12.0\VC\INCLUDE\CWCHAR
C:\PROGRAM FILES (X86)\MICROSOFT VISUAL STUDIO 12.0\VC\INCLUDE\WCHAR.H
C:\PROGRAM FILES (X86)\MICROSOFT VISUAL STUDIO 12.0\VC\INCLUDE\WTIME.INL
C:\PROGRAM FILES (X86)\MICROSOFT VISUAL STUDIO 12.0\VC\INCLUDE\NEW
C:\PROGRAM FILES (X86)\MICROSOFT VISUAL STUDIO 12.0\VC\INCLUDE\XUTILITY
C:\PROGRAM FILES (X86)\MICROSOFT VISUAL STUDIO 12.0\VC\INCLUDE\UTILITY
C:\PROGRAM FILES (X86)\MICROSOFT VISUAL STUDIO 12.0\VC\INCLUDE\IOSFWD
C:\PROGRAM FILES (X86)\MICROSOFT VISUAL STUDIO 12.0\VC\INCLUDE\CRTDBG.H
C:\PROGRAM FILES (X86)\MICROSOFT VISUAL STUDIO 12.0\VC\INCLUDE\TYPE_TRAITS
C:\PROGRAM FILES (X86)\MICROSOFT VISUAL STUDIO 12.0\VC\INCLUDE\XREFWRAP
C:\PROGRAM FILES (X86)\MICROSOFT VISUAL STUDIO 12.0\VC\INCLUDE\XATOMIC0.H
C:\PROGRAM FILES (X86)\MICROSOFT VISUAL STUDIO 12.0\VC\INCLUDE\INTRIN.H
C:\PROGRAM FILES (X86)\MICROSOFT VISUAL STUDIO 12.0\VC\INCLUDE\SETJMP.H
C:\PROGRAM FILES (X86)\MICROSOFT VISUAL STUDIO 12.0\VC\INCLUDE\IMMINTRIN.H
C:\PROGRAM FILES (X86)\MICROSOFT VISUAL STUDIO 12.0\VC\INCLUDE\WMMINTRIN.H
C:\PROGRAM FILES (X86)\MICROSOFT VISUAL STUDIO 12.0\VC\INCLUDE\NMMINTRIN.H
C:\PROGRAM FILES (X86)\MICROSOFT VISUAL STUDIO 12.0\VC\INCLUDE\SMMINTRIN.H
C:\PROGRAM FILES (X86)\MICROSOFT VISUAL STUDIO 12.0\VC\INCLUDE\TMMINTRIN.H
C:\PROGRAM FILES (X86)\MICROSOFT VISUAL STUDIO 12.0\VC\INCLUDE\PMMINTRIN.H
C:\PROGRAM FILES (X86)\MICROSOFT VISUAL STUDIO 12.0\VC\INCLUDE\EMMINTRIN.H
C:\PROGRAM FILES (X86)\MICROSOFT VISUAL STUDIO 12.0\VC\INCLUDE\XMMINTRIN.H
C:\PROGRAM FILES (X86)\MICROSOFT VISUAL STUDIO 12.0\VC\INCLUDE\MMINTRIN.H
C:\PROGRAM FILES (X86)\MICROSOFT VISUAL STUDIO 12.0\VC\INCLUDE\AMMINTRIN.H
C:\PROGRAM FILES (X86)\MICROSOFT VISUAL STUDIO 12.0\VC\INCLUDE\MM3DNOW.H
C:\PROGRAM FILES (X86)\MICROSOFT VISUAL STUDIO 12.0\VC\INCLUDE\TYPEINFO
C:\PROGRAM FILES (X86)\MICROSOFT VISUAL STUDIO 12.0\VC\INCLUDE\XLOCINFO
C:\PROGRAM FILES (X86)\MICROSOFT VISUAL STUDIO 12.0\VC\INCLUDE\XLOCINFO.H
C:\PROGRAM FILES (X86)\MICROSOFT VISUAL STUDIO 12.0\VC\INCLUDE\CTYPE.H
C:\PROGRAM FILES (X86)\MICROSOFT VISUAL STUDIO 12.0\VC\INCLUDE\LOCALE.H
C:\PROGRAM FILES (X86)\MICROSOFT VISUAL STUDIO 12.0\VC\INCLUDE\XDEBUG
C:\PROGRAM FILES (X86)\MICROSOFT VISUAL STUDIO 12.0\VC\INCLUDE\XMEMORY
C:\PROGRAM FILES (X86)\MICROSOFT VISUAL STUDIO 12.0\VC\INCLUDE\XFACET
C:\PROGRAM FILES (X86)\MICROSOFT VISUAL STUDIO 12.0\VC\INCLUDE\SYSTEM_ERROR
C:\PROGRAM FILES (X86)\MICROSOFT VISUAL STUDIO 12.0\VC\INCLUDE\CERRNO
C:\PROGRAM FILES (X86)\MICROSOFT VISUAL STUDIO 12.0\VC\INCLUDE\ERRNO.H
C:\PROGRAM FILES (X86)\MICROSOFT VISUAL STUDIO 12.0\VC\INCLUDE\SHARE.H
E:\SETTING SOFTWARE SPACE\SDL LIBRARY\SDL2-2.0.8\INCLUDE\SDL.H
E:\SETTING SOFTWARE SPACE\SDL LIBRARY\SDL2-2.0.8\INCLUDE\SDL_MAIN.H
E:\SETTING SOFTWARE SPACE\SDL LIBRARY\SDL2-2.0.8\INCLUDE\SDL_STDINC.H
E:\SETTING SOFTWARE SPACE\SDL LIBRARY\SDL2-2.0.8\INCLUDE\SDL_CONFIG.H
E:\SETTING SOFTWARE SPACE\SDL LIBRARY\SDL2-2.0.8\INCLUDE\SDL_PLATFORM.H
C:\PROGRAM FILES (X86)\WINDOWS KITS\8.1\INCLUDE\SHARED\WINAPIFAMILY.H
E:\SETTING SOFTWARE SPACE\SDL LIBRARY\SDL2-2.0.8\INCLUDE\BEGIN_CODE.H
E:\SETTING SOFTWARE SPACE\SDL LIBRARY\SDL2-2.0.8\INCLUDE\CLOSE_CODE.H
C:\PROGRAM FILES (X86)\MICROSOFT VISUAL STUDIO 12.0\VC\INCLUDE\STDARG.H
E:\SETTING SOFTWARE SPACE\SDL LIBRARY\SDL2-2.0.8\INCLUDE\SDL_ASSERT.H
E:\SETTING SOFTWARE SPACE\SDL LIBRARY\SDL2-2.0.8\INCLUDE\SDL_ATOMIC.H
E:\SETTING SOFTWARE SPACE\SDL LIBRARY\SDL2-2.0.8\INCLUDE\SDL_AUDIO.H
E:\SETTING SOFTWARE SPACE\SDL LIBRARY\SDL2-2.0.8\INCLUDE\SDL_ERROR.H
E:\SETTING SOFTWARE SPACE\SDL LIBRARY\SDL2-2.0.8\INCLUDE\SDL_ENDIAN.H
E:\SETTING SOFTWARE SPACE\SDL LIBRARY\SDL2-2.0.8\INCLUDE\SDL_MUTEX.H
E:\SETTING SOFTWARE SPACE\SDL LIBRARY\SDL2-2.0.8\INCLUDE\SDL_THREAD.H
C:\PROGRAM FILES (X86)\MICROSOFT VISUAL STUDIO 12.0\VC\INCLUDE\PROCESS.H
E:\SETTING SOFTWARE SPACE\SDL LIBRARY\SDL2-2.0.8\INCLUDE\SDL_RWOPS.H
E:\SETTING SOFTWARE SPACE\SDL LIBRARY\SDL2-2.0.8\INCLUDE\SDL_CLIPBOARD.H
E:\SETTING SOFTWARE SPACE\SDL LIBRARY\SDL2-2.0.8\INCLUDE\SDL_CPUINFO.H
E:\SETTING SOFTWARE SPACE\SDL LIBRARY\SDL2-2.0.8\INCLUDE\SDL_EVENTS.H
E:\SETTING SOFTWARE SPACE\SDL LIBRARY\SDL2-2.0.8\INCLUDE\SDL_VIDEO.H
E:\SETTING SOFTWARE SPACE\SDL LIBRARY\SDL2-2.0.8\INCLUDE\SDL_PIXELS.H
E:\SETTING SOFTWARE SPACE\SDL LIBRARY\SDL2-2.0.8\INCLUDE\SDL_RECT.H
E:\SETTING SOFTWARE SPACE\SDL LIBRARY\SDL2-2.0.8\INCLUDE\SDL_SURFACE.H
E:\SETTING SOFTWARE SPACE\SDL LIBRARY\SDL2-2.0.8\INCLUDE\SDL_BLENDMODE.H
E:\SETTING SOFTWARE SPACE\SDL LIBRARY\SDL2-2.0.8\INCLUDE\SDL_KEYBOARD.H
E:\SETTING SOFTWARE SPACE\SDL LIBRARY\SDL2-2.0.8\INCLUDE\SDL_KEYCODE.H
E:\SETTING SOFTWARE SPACE\SDL LIBRARY\SDL2-2.0.8\INCLUDE\SDL_SCANCODE.H
E:\SETTING SOFTWARE SPACE\SDL LIBRARY\SDL2-2.0.8\INCLUDE\SDL_MOUSE.H
E:\SETTING SOFTWARE SPACE\SDL LIBRARY\SDL2-2.0.8\INCLUDE\SDL_JOYSTICK.H
E:\SETTING SOFTWARE SPACE\SDL LIBRARY\SDL2-2.0.8\INCLUDE\SDL_GAMECONTROLLER.H
E:\SETTING SOFTWARE SPACE\SDL LIBRARY\SDL2-2.0.8\INCLUDE\SDL_QUIT.H
E:\SETTING SOFTWARE SPACE\SDL LIBRARY\SDL2-2.0.8\INCLUDE\SDL_GESTURE.H
E:\SETTING SOFTWARE SPACE\SDL LIBRARY\SDL2-2.0.8\INCLUDE\SDL_TOUCH.H
E:\SETTING SOFTWARE SPACE\SDL LIBRARY\SDL2-2.0.8\INCLUDE\SDL_FILESYSTEM.H
E:\SETTING SOFTWARE SPACE\SDL LIBRARY\SDL2-2.0.8\INCLUDE\SDL_HAPTIC.H
E:\SETTING SOFTWARE SPACE\SDL LIBRARY\SDL2-2.0.8\INCLUDE\SDL_HINTS.H
E:\SETTING SOFTWARE SPACE\SDL LIBRARY\SDL2-2.0.8\INCLUDE\SDL_LOADSO.H
E:\SETTING SOFTWARE SPACE\SDL LIBRARY\SDL2-2.0.8\INCLUDE\SDL_LOG.H
E:\SETTING SOFTWARE SPACE\SDL LIBRARY\SDL2-2.0.8\INCLUDE\SDL_MESSAGEBOX.H
E:\SETTING SOFTWARE SPACE\SDL LIBRARY\SDL2-2.0.8\INCLUDE\SDL_POWER.H
E:\SETTING SOFTWARE SPACE\SDL LIBRARY\SDL2-2.0.8\INCLUDE\SDL_RENDER.H
E:\SETTING SOFTWARE SPACE\SDL LIBRARY\SDL2-2.0.8\INCLUDE\SDL_SHAPE.H
E:\SETTING SOFTWARE SPACE\SDL LIBRARY\SDL2-2.0.8\INCLUDE\SDL_SYSTEM.H
E:\SETTING SOFTWARE SPACE\SDL LIBRARY\SDL2-2.0.8\INCLUDE\SDL_TIMER.H
E:\SETTING SOFTWARE SPACE\SDL LIBRARY\SDL2-2.0.8\INCLUDE\SDL_VERSION.H
E:\DOWNLOADED FILES\FRAMEWORK-CG-MASTER-62A8BC4E5B554E811249B72281CE297F3C45607C\FRAMEWORK-CG-MASTER-62A8BC4E5B554E811249B72281CE297F3C45607C\LINE.H
E:\DOWNLOADED FILES\FRAMEWORK-CG-MASTER-62A8BC4E5B554E811249B72281CE297F3C45607C\FRAMEWORK-CG-MASTER-62A8BC4E5B554E811249B72281CE297F3C45607C\CLIPPING.H
E:\DOWNLOADED FILES\FRAMEWORK-CG-MASTER-62A8BC4E5B554E811249B72281CE297F3C45607C\FRAMEWORK-CG-MASTER-62A8BC4E5B554E811249B72281CE297F3C45607C\VECTOR2D.H
E:\DOWNLOADED FILES\FRAMEWORK-CG-MASTER-62A8BC4E5B554E811249B72281CE297F3C45607C\FRAMEWORK-CG-MASTER-62A8BC4E5B554E811249B72281CE297F3C45607C\DRAWPOLYGON.H
C:\PROGRAM FILES (X86)\MICROSOFT VISUAL STUDIO 12.0\VC\BIN\1033\CLUI.DLL
C:\WINDOWS\GLOBALIZATION\SORTING\SORTDEFAULT.NLS
C:\WINDOWS\SYSTEM32\TZRES.DLL
C:\PROGRAM FILES (X86)\MICROSOFT VISUAL STUDIO 12.0\VC\BIN\MSPDBSRV.EXE
^E:\DOWNLOADED FILES\FRAMEWORK-CG-MASTER-62A8BC4E5B554E811249B72281CE297F3C45607C\FRAMEWORK-CG-MASTER-62A8BC4E5B554E811249B72281CE297F3C45607C\LINE.CPP
E:\DOWNLOADED FILES\FRAMEWORK-CG-MASTER-62A8BC4E5B554E811249B72281CE297F3C45607C\FRAMEWORK-CG-MASTER-62A8BC4E5B554E811249B72281CE297F3C45607C\LINE.H
E:\SETTING SOFTWARE SPACE\SDL LIBRARY\SDL2-2.0.8\INCLUDE\SDL.H
E:\SETTING SOFTWARE SPACE\SDL LIBRARY\SDL2-2.0.8\INCLUDE\SDL_MAIN.H
E:\SETTING SOFTWARE SPACE\SDL LIBRARY\SDL2-2.0.8\INCLUDE\SDL_STDINC.H
E:\SETTING SOFTWARE SPACE\SDL LIBRARY\SDL2-2.0.8\INCLUDE\SDL_CONFIG.H
E:\SETTING SOFTWARE SPACE\SDL LIBRARY\SDL2-2.0.8\INCLUDE\SDL_PLATFORM.H
C:\PROGRAM FILES (X86)\WINDOWS KITS\8.1\INCLUDE\SHARED\WINAPIFAMILY.H
E:\SETTING SOFTWARE SPACE\SDL LIBRARY\SDL2-2.0.8\INCLUDE\BEGIN_CODE.H
E:\SETTING SOFTWARE SPACE\SDL LIBRARY\SDL2-2.0.8\INCLUDE\CLOSE_CODE.H
C:\PROGRAM FILES (X86)\MICROSOFT VISUAL STUDIO 12.0\VC\INCLUDE\STDDEF.H
C:\PROGRAM FILES (X86)\MICROSOFT VISUAL STUDIO 12.0\VC\INCLUDE\CRTDEFS.H
C:\PROGRAM FILES (X86)\MICROSOFT VISUAL STUDIO 12.0\VC\INCLUDE\SAL.H
C:\PROGRAM FILES (X86)\MICROSOFT VISUAL STUDIO 12.0\VC\INCLUDE\CONCURRENCYSAL.H
C:\PROGRAM FILES (X86)\MICROSOFT VISUAL STUDIO 12.0\VC\INCLUDE\VADEFS.H
C:\PROGRAM FILES (X86)\MICROSOFT VISUAL STUDIO 12.0\VC\INCLUDE\STDARG.H
E:\SETTING SOFTWARE SPACE\SDL LIBRARY\SDL2-2.0.8\INCLUDE\SDL_ASSERT.H
E:\SETTING SOFTWARE SPACE\SDL LIBRARY\SDL2-2.0.8\INCLUDE\SDL_ATOMIC.H
E:\SETTING SOFTWARE SPACE\SDL LIBRARY\SDL2-2.0.8\INCLUDE\SDL_AUDIO.H
E:\SETTING SOFTWARE SPACE\SDL LIBRARY\SDL2-2.0.8\INCLUDE\SDL_ERROR.H
E:\SETTING SOFTWARE SPACE\SDL LIBRARY\SDL2-2.0.8\INCLUDE\SDL_ENDIAN.H
E:\SETTING SOFTWARE SPACE\SDL LIBRARY\SDL2-2.0.8\INCLUDE\SDL_MUTEX.H
E:\SETTING SOFTWARE SPACE\SDL LIBRARY\SDL2-2.0.8\INCLUDE\SDL_THREAD.H
C:\PROGRAM FILES (X86)\MICROSOFT VISUAL STUDIO 12.0\VC\INCLUDE\PROCESS.H
E:\SETTING SOFTWARE SPACE\SDL LIBRARY\SDL2-2.0.8\INCLUDE\SDL_RWOPS.H
E:\SETTING SOFTWARE SPACE\SDL LIBRARY\SDL2-2.0.8\INCLUDE\SDL_CLIPBOARD.H
E:\SETTING SOFTWARE SPACE\SDL LIBRARY\SDL2-2.0.8\INCLUDE\SDL_CPUINFO.H
C:\PROGRAM FILES (X86)\MICROSOFT VISUAL STUDIO 12.0\VC\INCLUDE\INTRIN.H
C:\PROGRAM FILES (X86)\MICROSOFT VISUAL STUDIO 12.0\VC\INCLUDE\SETJMP.H
C:\PROGRAM FILES (X86)\MICROSOFT VISUAL STUDIO 12.0\VC\INCLUDE\IMMINTRIN.H
C:\PROGRAM FILES (X86)\MICROSOFT VISUAL STUDIO 12.0\VC\INCLUDE\WMMINTRIN.H
C:\PROGRAM FILES (X86)\MICROSOFT VISUAL STUDIO 12.0\VC\INCLUDE\NMMINTRIN.H
C:\PROGRAM FILES (X86)\MICROSOFT VISUAL STUDIO 12.0\VC\INCLUDE\SMMINTRIN.H
C:\PROGRAM FILES (X86)\MICROSOFT VISUAL STUDIO 12.0\VC\INCLUDE\TMMINTRIN.H
C:\PROGRAM FILES (X86)\MICROSOFT VISUAL STUDIO 12.0\VC\INCLUDE\PMMINTRIN.H
C:\PROGRAM FILES (X86)\MICROSOFT VISUAL STUDIO 12.0\VC\INCLUDE\EMMINTRIN.H
C:\PROGRAM FILES (X86)\MICROSOFT VISUAL STUDIO 12.0\VC\INCLUDE\XMMINTRIN.H
C:\PROGRAM FILES (X86)\MICROSOFT VISUAL STUDIO 12.0\VC\INCLUDE\MMINTRIN.H
C:\PROGRAM FILES (X86)\MICROSOFT VISUAL STUDIO 12.0\VC\INCLUDE\MALLOC.H
C:\PROGRAM FILES (X86)\MICROSOFT VISUAL STUDIO 12.0\VC\INCLUDE\AMMINTRIN.H
C:\PROGRAM FILES (X86)\MICROSOFT VISUAL STUDIO 12.0\VC\INCLUDE\MM3DNOW.H
E:\SETTING SOFTWARE SPACE\SDL LIBRARY\SDL2-2.0.8\INCLUDE\SDL_EVENTS.H
E:\SETTING SOFTWARE SPACE\SDL LIBRARY\SDL2-2.0.8\INCLUDE\SDL_VIDEO.H
E:\SETTING SOFTWARE SPACE\SDL LIBRARY\SDL2-2.0.8\INCLUDE\SDL_PIXELS.H
E:\SETTING SOFTWARE SPACE\SDL LIBRARY\SDL2-2.0.8\INCLUDE\SDL_RECT.H
E:\SETTING SOFTWARE SPACE\SDL LIBRARY\SDL2-2.0.8\INCLUDE\SDL_SURFACE.H
E:\SETTING SOFTWARE SPACE\SDL LIBRARY\SDL2-2.0.8\INCLUDE\SDL_BLENDMODE.H
E:\SETTING SOFTWARE SPACE\SDL LIBRARY\SDL2-2.0.8\INCLUDE\SDL_KEYBOARD.H
E:\SETTING SOFTWARE SPACE\SDL LIBRARY\SDL2-2.0.8\INCLUDE\SDL_KEYCODE.H
E:\SETTING SOFTWARE SPACE\SDL LIBRARY\SDL2-2.0.8\INCLUDE\SDL_SCANCODE.H
E:\SETTING SOFTWARE SPACE\SDL LIBRARY\SDL2-2.0.8\INCLUDE\SDL_MOUSE.H
E:\SETTING SOFTWARE SPACE\SDL LIBRARY\SDL2-2.0.8\INCLUDE\SDL_JOYSTICK.H
E:\SETTING SOFTWARE SPACE\SDL LIBRARY\SDL2-2.0.8\INCLUDE\SDL_GAMECONTROLLER.H
E:\SETTING SOFTWARE SPACE\SDL LIBRARY\SDL2-2.0.8\INCLUDE\SDL_QUIT.H
E:\SETTING SOFTWARE SPACE\SDL LIBRARY\SDL2-2.0.8\INCLUDE\SDL_GESTURE.H
E:\SETTING SOFTWARE SPACE\SDL LIBRARY\SDL2-2.0.8\INCLUDE\SDL_TOUCH.H
E:\SETTING SOFTWARE SPACE\SDL LIBRARY\SDL2-2.0.8\INCLUDE\SDL_FILESYSTEM.H
E:\SETTING SOFTWARE SPACE\SDL LIBRARY\SDL2-2.0.8\INCLUDE\SDL_HAPTIC.H
E:\SETTING SOFTWARE SPACE\SDL LIBRARY\SDL2-2.0.8\INCLUDE\SDL_HINTS.H
E:\SETTING SOFTWARE SPACE\SDL LIBRARY\SDL2-2.0.8\INCLUDE\SDL_LOADSO.H
E:\SETTING SOFTWARE SPACE\SDL LIBRARY\SDL2-2.0.8\INCLUDE\SDL_LOG.H
E:\SETTING SOFTWARE SPACE\SDL LIBRARY\SDL2-2.0.8\INCLUDE\SDL_MESSAGEBOX.H
E:\SETTING SOFTWARE SPACE\SDL LIBRARY\SDL2-2.0.8\INCLUDE\SDL_POWER.H
E:\SETTING SOFTWARE SPACE\SDL LIBRARY\SDL2-2.0.8\INCLUDE\SDL_RENDER.H
E:\SETTING SOFTWARE SPACE\SDL LIBRARY\SDL2-2.0.8\INCLUDE\SDL_SHAPE.H
E:\SETTING SOFTWARE SPACE\SDL LIBRARY\SDL2-2.0.8\INCLUDE\SDL_SYSTEM.H
E:\SETTING SOFTWARE SPACE\SDL LIBRARY\SDL2-2.0.8\INCLUDE\SDL_TIMER.H
E:\SETTING SOFTWARE SPACE\SDL LIBRARY\SDL2-2.0.8\INCLUDE\SDL_VERSION.H
C:\PROGRAM FILES (X86)\MICROSOFT VISUAL STUDIO 12.0\VC\BIN\1033\CLUI.DLL
C:\WINDOWS\GLOBALIZATION\SORTING\SORTDEFAULT.NLS
C:\WINDOWS\SYSTEM32\TZRES.DLL
C:\PROGRAM FILES (X86)\MICROSOFT VISUAL STUDIO 12.0\VC\BIN\MSPDBSRV.EXE
^E:\DOWNLOADED FILES\FRAMEWORK-CG-MASTER-62A8BC4E5B554E811249B72281CE297F3C45607C\FRAMEWORK-CG-MASTER-62A8BC4E5B554E811249B72281CE297F3C45607C\ELLIPSE.CPP
E:\DOWNLOADED FILES\FRAMEWORK-CG-MASTER-62A8BC4E5B554E811249B72281CE297F3C45607C\FRAMEWORK-CG-MASTER-62A8BC4E5B554E811249B72281CE297F3C45607C\ELLIPSE.H
E:\SETTING SOFTWARE SPACE\SDL LIBRARY\SDL2-2.0.8\INCLUDE\SDL.H
E:\SETTING SOFTWARE SPACE\SDL LIBRARY\SDL2-2.0.8\INCLUDE\SDL_MAIN.H
E:\SETTING SOFTWARE SPACE\SDL LIBRARY\SDL2-2.0.8\INCLUDE\SDL_STDINC.H
E:\SETTING SOFTWARE SPACE\SDL LIBRARY\SDL2-2.0.8\INCLUDE\SDL_CONFIG.H
E:\SETTING SOFTWARE SPACE\SDL LIBRARY\SDL2-2.0.8\INCLUDE\SDL_PLATFORM.H
C:\PROGRAM FILES (X86)\WINDOWS KITS\8.1\INCLUDE\SHARED\WINAPIFAMILY.H
E:\SETTING SOFTWARE SPACE\SDL LIBRARY\SDL2-2.0.8\INCLUDE\BEGIN_CODE.H
E:\SETTING SOFTWARE SPACE\SDL LIBRARY\SDL2-2.0.8\INCLUDE\CLOSE_CODE.H
C:\PROGRAM FILES (X86)\MICROSOFT VISUAL STUDIO 12.0\VC\INCLUDE\STDDEF.H
C:\PROGRAM FILES (X86)\MICROSOFT VISUAL STUDIO 12.0\VC\INCLUDE\CRTDEFS.H
C:\PROGRAM FILES (X86)\MICROSOFT VISUAL STUDIO 12.0\VC\INCLUDE\SAL.H
C:\PROGRAM FILES (X86)\MICROSOFT VISUAL STUDIO 12.0\VC\INCLUDE\CONCURRENCYSAL.H
C:\PROGRAM FILES (X86)\MICROSOFT VISUAL STUDIO 12.0\VC\INCLUDE\VADEFS.H
C:\PROGRAM FILES (X86)\MICROSOFT VISUAL STUDIO 12.0\VC\INCLUDE\STDARG.H
E:\SETTING SOFTWARE SPACE\SDL LIBRARY\SDL2-2.0.8\INCLUDE\SDL_ASSERT.H
E:\SETTING SOFTWARE SPACE\SDL LIBRARY\SDL2-2.0.8\INCLUDE\SDL_ATOMIC.H
E:\SETTING SOFTWARE SPACE\SDL LIBRARY\SDL2-2.0.8\INCLUDE\SDL_AUDIO.H
E:\SETTING SOFTWARE SPACE\SDL LIBRARY\SDL2-2.0.8\INCLUDE\SDL_ERROR.H
E:\SETTING SOFTWARE SPACE\SDL LIBRARY\SDL2-2.0.8\INCLUDE\SDL_ENDIAN.H
E:\SETTING SOFTWARE SPACE\SDL LIBRARY\SDL2-2.0.8\INCLUDE\SDL_MUTEX.H
E:\SETTING SOFTWARE SPACE\SDL LIBRARY\SDL2-2.0.8\INCLUDE\SDL_THREAD.H
C:\PROGRAM FILES (X86)\MICROSOFT VISUAL STUDIO 12.0\VC\INCLUDE\PROCESS.H
E:\SETTING SOFTWARE SPACE\SDL LIBRARY\SDL2-2.0.8\INCLUDE\SDL_RWOPS.H
E:\SETTING SOFTWARE SPACE\SDL LIBRARY\SDL2-2.0.8\INCLUDE\SDL_CLIPBOARD.H
E:\SETTING SOFTWARE SPACE\SDL LIBRARY\SDL2-2.0.8\INCLUDE\SDL_CPUINFO.H
C:\PROGRAM FILES (X86)\MICROSOFT VISUAL STUDIO 12.0\VC\INCLUDE\INTRIN.H
C:\PROGRAM FILES (X86)\MICROSOFT VISUAL STUDIO 12.0\VC\INCLUDE\SETJMP.H
C:\PROGRAM FILES (X86)\MICROSOFT VISUAL STUDIO 12.0\VC\INCLUDE\IMMINTRIN.H
C:\PROGRAM FILES (X86)\MICROSOFT VISUAL STUDIO 12.0\VC\INCLUDE\WMMINTRIN.H
C:\PROGRAM FILES (X86)\MICROSOFT VISUAL STUDIO 12.0\VC\INCLUDE\NMMINTRIN.H
C:\PROGRAM FILES (X86)\MICROSOFT VISUAL STUDIO 12.0\VC\INCLUDE\SMMINTRIN.H
C:\PROGRAM FILES (X86)\MICROSOFT VISUAL STUDIO 12.0\VC\INCLUDE\TMMINTRIN.H
C:\PROGRAM FILES (X86)\MICROSOFT VISUAL STUDIO 12.0\VC\INCLUDE\PMMINTRIN.H
C:\PROGRAM FILES (X86)\MICROSOFT VISUAL STUDIO 12.0\VC\INCLUDE\EMMINTRIN.H
C:\PROGRAM FILES (X86)\MICROSOFT VISUAL STUDIO 12.0\VC\INCLUDE\XMMINTRIN.H
C:\PROGRAM FILES (X86)\MICROSOFT VISUAL STUDIO 12.0\VC\INCLUDE\MMINTRIN.H
C:\PROGRAM FILES (X86)\MICROSOFT VISUAL STUDIO 12.0\VC\INCLUDE\MALLOC.H
C:\PROGRAM FILES (X86)\MICROSOFT VISUAL STUDIO 12.0\VC\INCLUDE\AMMINTRIN.H
C:\PROGRAM FILES (X86)\MICROSOFT VISUAL STUDIO 12.0\VC\INCLUDE\MM3DNOW.H
E:\SETTING SOFTWARE SPACE\SDL LIBRARY\SDL2-2.0.8\INCLUDE\SDL_EVENTS.H
E:\SETTING SOFTWARE SPACE\SDL LIBRARY\SDL2-2.0.8\INCLUDE\SDL_VIDEO.H
E:\SETTING SOFTWARE SPACE\SDL LIBRARY\SDL2-2.0.8\INCLUDE\SDL_PIXELS.H
E:\SETTING SOFTWARE SPACE\SDL LIBRARY\SDL2-2.0.8\INCLUDE\SDL_RECT.H
E:\SETTING SOFTWARE SPACE\SDL LIBRARY\SDL2-2.0.8\INCLUDE\SDL_SURFACE.H
E:\SETTING SOFTWARE SPACE\SDL LIBRARY\SDL2-2.0.8\INCLUDE\SDL_BLENDMODE.H
E:\SETTING SOFTWARE SPACE\SDL LIBRARY\SDL2-2.0.8\INCLUDE\SDL_KEYBOARD.H
E:\SETTING SOFTWARE SPACE\SDL LIBRARY\SDL2-2.0.8\INCLUDE\SDL_KEYCODE.H
E:\SETTING SOFTWARE SPACE\SDL LIBRARY\SDL2-2.0.8\INCLUDE\SDL_SCANCODE.H
E:\SETTING SOFTWARE SPACE\SDL LIBRARY\SDL2-2.0.8\INCLUDE\SDL_MOUSE.H
E:\SETTING SOFTWARE SPACE\SDL LIBRARY\SDL2-2.0.8\INCLUDE\SDL_JOYSTICK.H
E:\SETTING SOFTWARE SPACE\SDL LIBRARY\SDL2-2.0.8\INCLUDE\SDL_GAMECONTROLLER.H
E:\SETTING SOFTWARE SPACE\SDL LIBRARY\SDL2-2.0.8\INCLUDE\SDL_QUIT.H
E:\SETTING SOFTWARE SPACE\SDL LIBRARY\SDL2-2.0.8\INCLUDE\SDL_GESTURE.H
E:\SETTING SOFTWARE SPACE\SDL LIBRARY\SDL2-2.0.8\INCLUDE\SDL_TOUCH.H
E:\SETTING SOFTWARE SPACE\SDL LIBRARY\SDL2-2.0.8\INCLUDE\SDL_FILESYSTEM.H
E:\SETTING SOFTWARE SPACE\SDL LIBRARY\SDL2-2.0.8\INCLUDE\SDL_HAPTIC.H
E:\SETTING SOFTWARE SPACE\SDL LIBRARY\SDL2-2.0.8\INCLUDE\SDL_HINTS.H
E:\SETTING SOFTWARE SPACE\SDL LIBRARY\SDL2-2.0.8\INCLUDE\SDL_LOADSO.H
E:\SETTING SOFTWARE SPACE\SDL LIBRARY\SDL2-2.0.8\INCLUDE\SDL_LOG.H
E:\SETTING SOFTWARE SPACE\SDL LIBRARY\SDL2-2.0.8\INCLUDE\SDL_MESSAGEBOX.H
E:\SETTING SOFTWARE SPACE\SDL LIBRARY\SDL2-2.0.8\INCLUDE\SDL_POWER.H
E:\SETTING SOFTWARE SPACE\SDL LIBRARY\SDL2-2.0.8\INCLUDE\SDL_RENDER.H
E:\SETTING SOFTWARE SPACE\SDL LIBRARY\SDL2-2.0.8\INCLUDE\SDL_SHAPE.H
E:\SETTING SOFTWARE SPACE\SDL LIBRARY\SDL2-2.0.8\INCLUDE\SDL_SYSTEM.H
E:\SETTING SOFTWARE SPACE\SDL LIBRARY\SDL2-2.0.8\INCLUDE\SDL_TIMER.H
E:\SETTING SOFTWARE SPACE\SDL LIBRARY\SDL2-2.0.8\INCLUDE\SDL_VERSION.H
^E:\DOWNLOADED FILES\FRAMEWORK-CG-MASTER-62A8BC4E5B554E811249B72281CE297F3C45607C\FRAMEWORK-CG-MASTER-62A8BC4E5B554E811249B72281CE297F3C45607C\DRAWPOLYGON.CPP
E:\DOWNLOADED FILES\FRAMEWORK-CG-MASTER-62A8BC4E5B554E811249B72281CE297F3C45607C\FRAMEWORK-CG-MASTER-62A8BC4E5B554E811249B72281CE297F3C45607C\DRAWPOLYGON.H
E:\SETTING SOFTWARE SPACE\SDL LIBRARY\SDL2-2.0.8\INCLUDE\SDL.H
E:\SETTING SOFTWARE SPACE\SDL LIBRARY\SDL2-2.0.8\INCLUDE\SDL_MAIN.H
E:\SETTING SOFTWARE SPACE\SDL LIBRARY\SDL2-2.0.8\INCLUDE\SDL_STDINC.H
E:\SETTING SOFTWARE SPACE\SDL LIBRARY\SDL2-2.0.8\INCLUDE\SDL_CONFIG.H
E:\SETTING SOFTWARE SPACE\SDL LIBRARY\SDL2-2.0.8\INCLUDE\SDL_PLATFORM.H
C:\PROGRAM FILES (X86)\WINDOWS KITS\8.1\INCLUDE\SHARED\WINAPIFAMILY.H
E:\SETTING SOFTWARE SPACE\SDL LIBRARY\SDL2-2.0.8\INCLUDE\BEGIN_CODE.H
E:\SETTING SOFTWARE SPACE\SDL LIBRARY\SDL2-2.0.8\INCLUDE\CLOSE_CODE.H
C:\PROGRAM FILES (X86)\MICROSOFT VISUAL STUDIO 12.0\VC\INCLUDE\STDDEF.H
C:\PROGRAM FILES (X86)\MICROSOFT VISUAL STUDIO 12.0\VC\INCLUDE\CRTDEFS.H
C:\PROGRAM FILES (X86)\MICROSOFT VISUAL STUDIO 12.0\VC\INCLUDE\SAL.H
C:\PROGRAM FILES (X86)\MICROSOFT VISUAL STUDIO 12.0\VC\INCLUDE\CONCURRENCYSAL.H
C:\PROGRAM FILES (X86)\MICROSOFT VISUAL STUDIO 12.0\VC\INCLUDE\VADEFS.H
C:\PROGRAM FILES (X86)\MICROSOFT VISUAL STUDIO 12.0\VC\INCLUDE\STDARG.H
E:\SETTING SOFTWARE SPACE\SDL LIBRARY\SDL2-2.0.8\INCLUDE\SDL_ASSERT.H
E:\SETTING SOFTWARE SPACE\SDL LIBRARY\SDL2-2.0.8\INCLUDE\SDL_ATOMIC.H
E:\SETTING SOFTWARE SPACE\SDL LIBRARY\SDL2-2.0.8\INCLUDE\SDL_AUDIO.H
E:\SETTING SOFTWARE SPACE\SDL LIBRARY\SDL2-2.0.8\INCLUDE\SDL_ERROR.H
E:\SETTING SOFTWARE SPACE\SDL LIBRARY\SDL2-2.0.8\INCLUDE\SDL_ENDIAN.H
E:\SETTING SOFTWARE SPACE\SDL LIBRARY\SDL2-2.0.8\INCLUDE\SDL_MUTEX.H
E:\SETTING SOFTWARE SPACE\SDL LIBRARY\SDL2-2.0.8\INCLUDE\SDL_THREAD.H
C:\PROGRAM FILES (X86)\MICROSOFT VISUAL STUDIO 12.0\VC\INCLUDE\PROCESS.H
E:\SETTING SOFTWARE SPACE\SDL LIBRARY\SDL2-2.0.8\INCLUDE\SDL_RWOPS.H
E:\SETTING SOFTWARE SPACE\SDL LIBRARY\SDL2-2.0.8\INCLUDE\SDL_CLIPBOARD.H
E:\SETTING SOFTWARE SPACE\SDL LIBRARY\SDL2-2.0.8\INCLUDE\SDL_CPUINFO.H
C:\PROGRAM FILES (X86)\MICROSOFT VISUAL STUDIO 12.0\VC\INCLUDE\INTRIN.H
C:\PROGRAM FILES (X86)\MICROSOFT VISUAL STUDIO 12.0\VC\INCLUDE\SETJMP.H
C:\PROGRAM FILES (X86)\MICROSOFT VISUAL STUDIO 12.0\VC\INCLUDE\IMMINTRIN.H
C:\PROGRAM FILES (X86)\MICROSOFT VISUAL STUDIO 12.0\VC\INCLUDE\WMMINTRIN.H
C:\PROGRAM FILES (X86)\MICROSOFT VISUAL STUDIO 12.0\VC\INCLUDE\NMMINTRIN.H
C:\PROGRAM FILES (X86)\MICROSOFT VISUAL STUDIO 12.0\VC\INCLUDE\SMMINTRIN.H
C:\PROGRAM FILES (X86)\MICROSOFT VISUAL STUDIO 12.0\VC\INCLUDE\TMMINTRIN.H
C:\PROGRAM FILES (X86)\MICROSOFT VISUAL STUDIO 12.0\VC\INCLUDE\PMMINTRIN.H
C:\PROGRAM FILES (X86)\MICROSOFT VISUAL STUDIO 12.0\VC\INCLUDE\EMMINTRIN.H
C:\PROGRAM FILES (X86)\MICROSOFT VISUAL STUDIO 12.0\VC\INCLUDE\XMMINTRIN.H
C:\PROGRAM FILES (X86)\MICROSOFT VISUAL STUDIO 12.0\VC\INCLUDE\MMINTRIN.H
C:\PROGRAM FILES (X86)\MICROSOFT VISUAL STUDIO 12.0\VC\INCLUDE\MALLOC.H
C:\PROGRAM FILES (X86)\MICROSOFT VISUAL STUDIO 12.0\VC\INCLUDE\AMMINTRIN.H
C:\PROGRAM FILES (X86)\MICROSOFT VISUAL STUDIO 12.0\VC\INCLUDE\MM3DNOW.H
E:\SETTING SOFTWARE SPACE\SDL LIBRARY\SDL2-2.0.8\INCLUDE\SDL_EVENTS.H
E:\SETTING SOFTWARE SPACE\SDL LIBRARY\SDL2-2.0.8\INCLUDE\SDL_VIDEO.H
E:\SETTING SOFTWARE SPACE\SDL LIBRARY\SDL2-2.0.8\INCLUDE\SDL_PIXELS.H
E:\SETTING SOFTWARE SPACE\SDL LIBRARY\SDL2-2.0.8\INCLUDE\SDL_RECT.H
E:\SETTING SOFTWARE SPACE\SDL LIBRARY\SDL2-2.0.8\INCLUDE\SDL_SURFACE.H
E:\SETTING SOFTWARE SPACE\SDL LIBRARY\SDL2-2.0.8\INCLUDE\SDL_BLENDMODE.H
E:\SETTING SOFTWARE SPACE\SDL LIBRARY\SDL2-2.0.8\INCLUDE\SDL_KEYBOARD.H
E:\SETTING SOFTWARE SPACE\SDL LIBRARY\SDL2-2.0.8\INCLUDE\SDL_KEYCODE.H
E:\SETTING SOFTWARE SPACE\SDL LIBRARY\SDL2-2.0.8\INCLUDE\SDL_SCANCODE.H
E:\SETTING SOFTWARE SPACE\SDL LIBRARY\SDL2-2.0.8\INCLUDE\SDL_MOUSE.H
E:\SETTING SOFTWARE SPACE\SDL LIBRARY\SDL2-2.0.8\INCLUDE\SDL_JOYSTICK.H
E:\SETTING SOFTWARE SPACE\SDL LIBRARY\SDL2-2.0.8\INCLUDE\SDL_GAMECONTROLLER.H
E:\SETTING SOFTWARE SPACE\SDL LIBRARY\SDL2-2.0.8\INCLUDE\SDL_QUIT.H
E:\SETTING SOFTWARE SPACE\SDL LIBRARY\SDL2-2.0.8\INCLUDE\SDL_GESTURE.H
E:\SETTING SOFTWARE SPACE\SDL LIBRARY\SDL2-2.0.8\INCLUDE\SDL_TOUCH.H
E:\SETTING SOFTWARE SPACE\SDL LIBRARY\SDL2-2.0.8\INCLUDE\SDL_FILESYSTEM.H
E:\SETTING SOFTWARE SPACE\SDL LIBRARY\SDL2-2.0.8\INCLUDE\SDL_HAPTIC.H
E:\SETTING SOFTWARE SPACE\SDL LIBRARY\SDL2-2.0.8\INCLUDE\SDL_HINTS.H
E:\SETTING SOFTWARE SPACE\SDL LIBRARY\SDL2-2.0.8\INCLUDE\SDL_LOADSO.H
E:\SETTING SOFTWARE SPACE\SDL LIBRARY\SDL2-2.0.8\INCLUDE\SDL_LOG.H
E:\SETTING SOFTWARE SPACE\SDL LIBRARY\SDL2-2.0.8\INCLUDE\SDL_MESSAGEBOX.H
E:\SETTING SOFTWARE SPACE\SDL LIBRARY\SDL2-2.0.8\INCLUDE\SDL_POWER.H
E:\SETTING SOFTWARE SPACE\SDL LIBRARY\SDL2-2.0.8\INCLUDE\SDL_RENDER.H
E:\SETTING SOFTWARE SPACE\SDL LIBRARY\SDL2-2.0.8\INCLUDE\SDL_SHAPE.H
E:\SETTING SOFTWARE SPACE\SDL LIBRARY\SDL2-2.0.8\INCLUDE\SDL_SYSTEM.H
E:\SETTING SOFTWARE SPACE\SDL LIBRARY\SDL2-2.0.8\INCLUDE\SDL_TIMER.H
E:\SETTING SOFTWARE SPACE\SDL LIBRARY\SDL2-2.0.8\INCLUDE\SDL_VERSION.H
C:\PROGRAM FILES (X86)\MICROSOFT VISUAL STUDIO 12.0\VC\INCLUDE\CMATH
C:\PROGRAM FILES (X86)\MICROSOFT VISUAL STUDIO 12.0\VC\INCLUDE\YVALS.H
C:\PROGRAM FILES (X86)\MICROSOFT VISUAL STUDIO 12.0\VC\INCLUDE\XKEYCHECK.H
C:\PROGRAM FILES (X86)\MICROSOFT VISUAL STUDIO 12.0\VC\INCLUDE\USE_ANSI.H
C:\PROGRAM FILES (X86)\MICROSOFT VISUAL STUDIO 12.0\VC\INCLUDE\MATH.H
C:\PROGRAM FILES (X86)\MICROSOFT VISUAL STUDIO 12.0\VC\INCLUDE\XTGMATH.H
C:\PROGRAM FILES (X86)\MICROSOFT VISUAL STUDIO 12.0\VC\INCLUDE\XTR1COMMON
E:\DOWNLOADED FILES\FRAMEWORK-CG-MASTER-62A8BC4E5B554E811249B72281CE297F3C45607C\FRAMEWORK-CG-MASTER-62A8BC4E5B554E811249B72281CE297F3C45607C\LINE.H
C:\PROGRAM FILES (X86)\MICROSOFT VISUAL STUDIO 12.0\VC\INCLUDE\IOSTREAM
C:\PROGRAM FILES (X86)\MICROSOFT VISUAL STUDIO 12.0\VC\INCLUDE\ISTREAM
C:\PROGRAM FILES (X86)\MICROSOFT VISUAL STUDIO 12.0\VC\INCLUDE\OSTREAM
C:\PROGRAM FILES (X86)\MICROSOFT VISUAL STUDIO 12.0\VC\INCLUDE\IOS
C:\PROGRAM FILES (X86)\MICROSOFT VISUAL STUDIO 12.0\VC\INCLUDE\XLOCNUM
C:\PROGRAM FILES (X86)\MICROSOFT VISUAL STUDIO 12.0\VC\INCLUDE\CLIMITS
C:\PROGRAM FILES (X86)\MICROSOFT VISUAL STUDIO 12.0\VC\INCLUDE\LIMITS.H
C:\PROGRAM FILES (X86)\MICROSOFT VISUAL STUDIO 12.0\VC\INCLUDE\CSTDIO
C:\PROGRAM FILES (X86)\MICROSOFT VISUAL STUDIO 12.0\VC\INCLUDE\STDIO.H
C:\PROGRAM FILES (X86)\MICROSOFT VISUAL STUDIO 12.0\VC\INCLUDE\SWPRINTF.INL
C:\PROGRAM FILES (X86)\MICROSOFT VISUAL STUDIO 12.0\VC\INCLUDE\CSTDLIB
C:\PROGRAM FILES (X86)\MICROSOFT VISUAL STUDIO 12.0\VC\INCLUDE\STDLIB.H
C:\PROGRAM FILES (X86)\MICROSOFT VISUAL STUDIO 12.0\VC\INCLUDE\STREAMBUF
C:\PROGRAM FILES (X86)\MICROSOFT VISUAL STUDIO 12.0\VC\INCLUDE\XIOSBASE
C:\PROGRAM FILES (X86)\MICROSOFT VISUAL STUDIO 12.0\VC\INCLUDE\XLOCALE
C:\PROGRAM FILES (X86)\MICROSOFT VISUAL STUDIO 12.0\VC\INCLUDE\CSTRING
C:\PROGRAM FILES (X86)\MICROSOFT VISUAL STUDIO 12.0\VC\INCLUDE\STRING.H
C:\PROGRAM FILES (X86)\MICROSOFT VISUAL STUDIO 12.0\VC\INCLUDE\STDEXCEPT
C:\PROGRAM FILES (X86)\MICROSOFT VISUAL STUDIO 12.0\VC\INCLUDE\EXCEPTION
C:\PROGRAM FILES (X86)\MICROSOFT VISUAL STUDIO 12.0\VC\INCLUDE\XSTDDEF
C:\PROGRAM FILES (X86)\MICROSOFT VISUAL STUDIO 12.0\VC\INCLUDE\CSTDDEF
C:\PROGRAM FILES (X86)\MICROSOFT VISUAL STUDIO 12.0\VC\INCLUDE\INITIALIZER_LIST
C:\PROGRAM FILES (X86)\MICROSOFT VISUAL STUDIO 12.0\VC\INCLUDE\EH.H
C:\PROGRAM FILES (X86)\MICROSOFT VISUAL STUDIO 12.0\VC\INCLUDE\XSTRING
C:\PROGRAM FILES (X86)\MICROSOFT VISUAL STUDIO 12.0\VC\INCLUDE\XMEMORY0
C:\PROGRAM FILES (X86)\MICROSOFT VISUAL STUDIO 12.0\VC\INCLUDE\LIMITS
C:\PROGRAM FILES (X86)\MICROSOFT VISUAL STUDIO 12.0\VC\INCLUDE\YMATH.H
C:\PROGRAM FILES (X86)\MICROSOFT VISUAL STUDIO 12.0\VC\INCLUDE\CFLOAT
C:\PROGRAM FILES (X86)\MICROSOFT VISUAL STUDIO 12.0\VC\INCLUDE\FLOAT.H
C:\PROGRAM FILES (X86)\MICROSOFT VISUAL STUDIO 12.0\VC\INCLUDE\CRTWRN.H
C:\PROGRAM FILES (X86)\MICROSOFT VISUAL STUDIO 12.0\VC\INCLUDE\CWCHAR
C:\PROGRAM FILES (X86)\MICROSOFT VISUAL STUDIO 12.0\VC\INCLUDE\WCHAR.H
C:\PROGRAM FILES (X86)\MICROSOFT VISUAL STUDIO 12.0\VC\INCLUDE\WTIME.INL
C:\PROGRAM FILES (X86)\MICROSOFT VISUAL STUDIO 12.0\VC\INCLUDE\NEW
C:\PROGRAM FILES (X86)\MICROSOFT VISUAL STUDIO 12.0\VC\INCLUDE\XUTILITY
C:\PROGRAM FILES (X86)\MICROSOFT VISUAL STUDIO 12.0\VC\INCLUDE\UTILITY
C:\PROGRAM FILES (X86)\MICROSOFT VISUAL STUDIO 12.0\VC\INCLUDE\IOSFWD
C:\PROGRAM FILES (X86)\MICROSOFT VISUAL STUDIO 12.0\VC\INCLUDE\CRTDBG.H
C:\PROGRAM FILES (X86)\MICROSOFT VISUAL STUDIO 12.0\VC\INCLUDE\TYPE_TRAITS
C:\PROGRAM FILES (X86)\MICROSOFT VISUAL STUDIO 12.0\VC\INCLUDE\XREFWRAP
C:\PROGRAM FILES (X86)\MICROSOFT VISUAL STUDIO 12.0\VC\INCLUDE\XATOMIC0.H
C:\PROGRAM FILES (X86)\MICROSOFT VISUAL STUDIO 12.0\VC\INCLUDE\TYPEINFO
C:\PROGRAM FILES (X86)\MICROSOFT VISUAL STUDIO 12.0\VC\INCLUDE\XLOCINFO
C:\PROGRAM FILES (X86)\MICROSOFT VISUAL STUDIO 12.0\VC\INCLUDE\XLOCINFO.H
C:\PROGRAM FILES (X86)\MICROSOFT VISUAL STUDIO 12.0\VC\INCLUDE\CTYPE.H
C:\PROGRAM FILES (X86)\MICROSOFT VISUAL STUDIO 12.0\VC\INCLUDE\LOCALE.H
C:\PROGRAM FILES (X86)\MICROSOFT VISUAL STUDIO 12.0\VC\INCLUDE\XDEBUG
C:\PROGRAM FILES (X86)\MICROSOFT VISUAL STUDIO 12.0\VC\INCLUDE\XMEMORY
C:\PROGRAM FILES (X86)\MICROSOFT VISUAL STUDIO 12.0\VC\INCLUDE\XFACET
C:\PROGRAM FILES (X86)\MICROSOFT VISUAL STUDIO 12.0\VC\INCLUDE\SYSTEM_ERROR
C:\PROGRAM FILES (X86)\MICROSOFT VISUAL STUDIO 12.0\VC\INCLUDE\CERRNO
C:\PROGRAM FILES (X86)\MICROSOFT VISUAL STUDIO 12.0\VC\INCLUDE\ERRNO.H
C:\PROGRAM FILES (X86)\MICROSOFT VISUAL STUDIO 12.0\VC\INCLUDE\SHARE.H
C:\PROGRAM FILES (X86)\MICROSOFT VISUAL STUDIO 12.0\VC\BIN\1033\CLUI.DLL
C:\WINDOWS\GLOBALIZATION\SORTING\SORTDEFAULT.NLS
C:\WINDOWS\SYSTEM32\TZRES.DLL
^E:\DOWNLOADED FILES\FRAMEWORK-CG-MASTER-62A8BC4E5B554E811249B72281CE297F3C45607C\FRAMEWORK-CG-MASTER-62A8BC4E5B554E811249B72281CE297F3C45607C\CLIPPING.CPP
E:\DOWNLOADED FILES\FRAMEWORK-CG-MASTER-62A8BC4E5B554E811249B72281CE297F3C45607C\FRAMEWORK-CG-MASTER-62A8BC4E5B554E811249B72281CE297F3C45607C\CLIPPING.H
E:\DOWNLOADED FILES\FRAMEWORK-CG-MASTER-62A8BC4E5B554E811249B72281CE297F3C45607C\FRAMEWORK-CG-MASTER-62A8BC4E5B554E811249B72281CE297F3C45607C\VECTOR2D.H
C:\PROGRAM FILES (X86)\MICROSOFT VISUAL STUDIO 12.0\VC\INCLUDE\CMATH
C:\PROGRAM FILES (X86)\MICROSOFT VISUAL STUDIO 12.0\VC\INCLUDE\YVALS.H
C:\PROGRAM FILES (X86)\MICROSOFT VISUAL STUDIO 12.0\VC\INCLUDE\XKEYCHECK.H
C:\PROGRAM FILES (X86)\MICROSOFT VISUAL STUDIO 12.0\VC\INCLUDE\CRTDEFS.H
C:\PROGRAM FILES (X86)\MICROSOFT VISUAL STUDIO 12.0\VC\INCLUDE\SAL.H
C:\PROGRAM FILES (X86)\MICROSOFT VISUAL STUDIO 12.0\VC\INCLUDE\CONCURRENCYSAL.H
C:\PROGRAM FILES (X86)\MICROSOFT VISUAL STUDIO 12.0\VC\INCLUDE\VADEFS.H
C:\PROGRAM FILES (X86)\MICROSOFT VISUAL STUDIO 12.0\VC\INCLUDE\USE_ANSI.H
C:\PROGRAM FILES (X86)\MICROSOFT VISUAL STUDIO 12.0\VC\INCLUDE\MATH.H
C:\PROGRAM FILES (X86)\MICROSOFT VISUAL STUDIO 12.0\VC\INCLUDE\XTGMATH.H
C:\PROGRAM FILES (X86)\MICROSOFT VISUAL STUDIO 12.0\VC\INCLUDE\XTR1COMMON
C:\PROGRAM FILES (X86)\MICROSOFT VISUAL STUDIO 12.0\VC\INCLUDE\IOSTREAM
C:\PROGRAM FILES (X86)\MICROSOFT VISUAL STUDIO 12.0\VC\INCLUDE\ISTREAM
C:\PROGRAM FILES (X86)\MICROSOFT VISUAL STUDIO 12.0\VC\INCLUDE\OSTREAM
C:\PROGRAM FILES (X86)\MICROSOFT VISUAL STUDIO 12.0\VC\INCLUDE\IOS
C:\PROGRAM FILES (X86)\MICROSOFT VISUAL STUDIO 12.0\VC\INCLUDE\XLOCNUM
C:\PROGRAM FILES (X86)\MICROSOFT VISUAL STUDIO 12.0\VC\INCLUDE\CLIMITS
C:\PROGRAM FILES (X86)\MICROSOFT VISUAL STUDIO 12.0\VC\INCLUDE\LIMITS.H
C:\PROGRAM FILES (X86)\MICROSOFT VISUAL STUDIO 12.0\VC\INCLUDE\CSTDIO
C:\PROGRAM FILES (X86)\MICROSOFT VISUAL STUDIO 12.0\VC\INCLUDE\STDIO.H
C:\PROGRAM FILES (X86)\MICROSOFT VISUAL STUDIO 12.0\VC\INCLUDE\SWPRINTF.INL
C:\PROGRAM FILES (X86)\MICROSOFT VISUAL STUDIO 12.0\VC\INCLUDE\CSTDLIB
C:\PROGRAM FILES (X86)\MICROSOFT VISUAL STUDIO 12.0\VC\INCLUDE\STDLIB.H
C:\PROGRAM FILES (X86)\MICROSOFT VISUAL STUDIO 12.0\VC\INCLUDE\STREAMBUF
C:\PROGRAM FILES (X86)\MICROSOFT VISUAL STUDIO 12.0\VC\INCLUDE\XIOSBASE
C:\PROGRAM FILES (X86)\MICROSOFT VISUAL STUDIO 12.0\VC\INCLUDE\XLOCALE
C:\PROGRAM FILES (X86)\MICROSOFT VISUAL STUDIO 12.0\VC\INCLUDE\CSTRING
C:\PROGRAM FILES (X86)\MICROSOFT VISUAL STUDIO 12.0\VC\INCLUDE\STRING.H
C:\PROGRAM FILES (X86)\MICROSOFT VISUAL STUDIO 12.0\VC\INCLUDE\STDEXCEPT
C:\PROGRAM FILES (X86)\MICROSOFT VISUAL STUDIO 12.0\VC\INCLUDE\EXCEPTION
C:\PROGRAM FILES (X86)\MICROSOFT VISUAL STUDIO 12.0\VC\INCLUDE\XSTDDEF
C:\PROGRAM FILES (X86)\MICROSOFT VISUAL STUDIO 12.0\VC\INCLUDE\CSTDDEF
C:\PROGRAM FILES (X86)\MICROSOFT VISUAL STUDIO 12.0\VC\INCLUDE\STDDEF.H
C:\PROGRAM FILES (X86)\MICROSOFT VISUAL STUDIO 12.0\VC\INCLUDE\INITIALIZER_LIST
C:\PROGRAM FILES (X86)\MICROSOFT VISUAL STUDIO 12.0\VC\INCLUDE\EH.H
C:\PROGRAM FILES (X86)\MICROSOFT VISUAL STUDIO 12.0\VC\INCLUDE\MALLOC.H
C:\PROGRAM FILES (X86)\MICROSOFT VISUAL STUDIO 12.0\VC\INCLUDE\XSTRING
C:\PROGRAM FILES (X86)\MICROSOFT VISUAL STUDIO 12.0\VC\INCLUDE\XMEMORY0
C:\PROGRAM FILES (X86)\MICROSOFT VISUAL STUDIO 12.0\VC\INCLUDE\LIMITS
C:\PROGRAM FILES (X86)\MICROSOFT VISUAL STUDIO 12.0\VC\INCLUDE\YMATH.H
C:\PROGRAM FILES (X86)\MICROSOFT VISUAL STUDIO 12.0\VC\INCLUDE\CFLOAT
C:\PROGRAM FILES (X86)\MICROSOFT VISUAL STUDIO 12.0\VC\INCLUDE\FLOAT.H
C:\PROGRAM FILES (X86)\MICROSOFT VISUAL STUDIO 12.0\VC\INCLUDE\CRTWRN.H
C:\PROGRAM FILES (X86)\MICROSOFT VISUAL STUDIO 12.0\VC\INCLUDE\CWCHAR
C:\PROGRAM FILES (X86)\MICROSOFT VISUAL STUDIO 12.0\VC\INCLUDE\WCHAR.H
C:\PROGRAM FILES (X86)\MICROSOFT VISUAL STUDIO 12.0\VC\INCLUDE\WTIME.INL
C:\PROGRAM FILES (X86)\MICROSOFT VISUAL STUDIO 12.0\VC\INCLUDE\NEW
C:\PROGRAM FILES (X86)\MICROSOFT VISUAL STUDIO 12.0\VC\INCLUDE\XUTILITY
C:\PROGRAM FILES (X86)\MICROSOFT VISUAL STUDIO 12.0\VC\INCLUDE\UTILITY
C:\PROGRAM FILES (X86)\MICROSOFT VISUAL STUDIO 12.0\VC\INCLUDE\IOSFWD
C:\PROGRAM FILES (X86)\MICROSOFT VISUAL STUDIO 12.0\VC\INCLUDE\CRTDBG.H
C:\PROGRAM FILES (X86)\MICROSOFT VISUAL STUDIO 12.0\VC\INCLUDE\TYPE_TRAITS
C:\PROGRAM FILES (X86)\MICROSOFT VISUAL STUDIO 12.0\VC\INCLUDE\XREFWRAP
C:\PROGRAM FILES (X86)\MICROSOFT VISUAL STUDIO 12.0\VC\INCLUDE\XATOMIC0.H
C:\PROGRAM FILES (X86)\MICROSOFT VISUAL STUDIO 12.0\VC\INCLUDE\INTRIN.H
C:\PROGRAM FILES (X86)\MICROSOFT VISUAL STUDIO 12.0\VC\INCLUDE\SETJMP.H
C:\PROGRAM FILES (X86)\MICROSOFT VISUAL STUDIO 12.0\VC\INCLUDE\IMMINTRIN.H
C:\PROGRAM FILES (X86)\MICROSOFT VISUAL STUDIO 12.0\VC\INCLUDE\WMMINTRIN.H
C:\PROGRAM FILES (X86)\MICROSOFT VISUAL STUDIO 12.0\VC\INCLUDE\NMMINTRIN.H
C:\PROGRAM FILES (X86)\MICROSOFT VISUAL STUDIO 12.0\VC\INCLUDE\SMMINTRIN.H
C:\PROGRAM FILES (X86)\MICROSOFT VISUAL STUDIO 12.0\VC\INCLUDE\TMMINTRIN.H
C:\PROGRAM FILES (X86)\MICROSOFT VISUAL STUDIO 12.0\VC\INCLUDE\PMMINTRIN.H
C:\PROGRAM FILES (X86)\MICROSOFT VISUAL STUDIO 12.0\VC\INCLUDE\EMMINTRIN.H
C:\PROGRAM FILES (X86)\MICROSOFT VISUAL STUDIO 12.0\VC\INCLUDE\XMMINTRIN.H
C:\PROGRAM FILES (X86)\MICROSOFT VISUAL STUDIO 12.0\VC\INCLUDE\MMINTRIN.H
C:\PROGRAM FILES (X86)\MICROSOFT VISUAL STUDIO 12.0\VC\INCLUDE\AMMINTRIN.H
C:\PROGRAM FILES (X86)\MICROSOFT VISUAL STUDIO 12.0\VC\INCLUDE\MM3DNOW.H
C:\PROGRAM FILES (X86)\MICROSOFT VISUAL STUDIO 12.0\VC\INCLUDE\TYPEINFO
C:\PROGRAM FILES (X86)\MICROSOFT VISUAL STUDIO 12.0\VC\INCLUDE\XLOCINFO
C:\PROGRAM FILES (X86)\MICROSOFT VISUAL STUDIO 12.0\VC\INCLUDE\XLOCINFO.H
C:\PROGRAM FILES (X86)\MICROSOFT VISUAL STUDIO 12.0\VC\INCLUDE\CTYPE.H
C:\PROGRAM FILES (X86)\MICROSOFT VISUAL STUDIO 12.0\VC\INCLUDE\LOCALE.H
C:\PROGRAM FILES (X86)\MICROSOFT VISUAL STUDIO 12.0\VC\INCLUDE\XDEBUG
C:\PROGRAM FILES (X86)\MICROSOFT VISUAL STUDIO 12.0\VC\INCLUDE\XMEMORY
C:\PROGRAM FILES (X86)\MICROSOFT VISUAL STUDIO 12.0\VC\INCLUDE\XFACET
C:\PROGRAM FILES (X86)\MICROSOFT VISUAL STUDIO 12.0\VC\INCLUDE\SYSTEM_ERROR
C:\PROGRAM FILES (X86)\MICROSOFT VISUAL STUDIO 12.0\VC\INCLUDE\CERRNO
C:\PROGRAM FILES (X86)\MICROSOFT VISUAL STUDIO 12.0\VC\INCLUDE\ERRNO.H
C:\PROGRAM FILES (X86)\MICROSOFT VISUAL STUDIO 12.0\VC\INCLUDE\SHARE.H
C:\PROGRAM FILES (X86)\MICROSOFT VISUAL STUDIO 12.0\VC\BIN\1033\CLUI.DLL
C:\WINDOWS\GLOBALIZATION\SORTING\SORTDEFAULT.NLS
C:\WINDOWS\SYSTEM32\TZRES.DLL
^E:\DOWNLOADED FILES\FRAMEWORK-CG-MASTER-62A8BC4E5B554E811249B72281CE297F3C45607C\FRAMEWORK-CG-MASTER-62A8BC4E5B554E811249B72281CE297F3C45607C\CIRCLE.CPP
E:\DOWNLOADED FILES\FRAMEWORK-CG-MASTER-62A8BC4E5B554E811249B72281CE297F3C45607C\FRAMEWORK-CG-MASTER-62A8BC4E5B554E811249B72281CE297F3C45607C\CIRCLE.H
E:\SETTING SOFTWARE SPACE\SDL LIBRARY\SDL2-2.0.8\INCLUDE\SDL.H
E:\SETTING SOFTWARE SPACE\SDL LIBRARY\SDL2-2.0.8\INCLUDE\SDL_MAIN.H
E:\SETTING SOFTWARE SPACE\SDL LIBRARY\SDL2-2.0.8\INCLUDE\SDL_STDINC.H
E:\SETTING SOFTWARE SPACE\SDL LIBRARY\SDL2-2.0.8\INCLUDE\SDL_CONFIG.H
E:\SETTING SOFTWARE SPACE\SDL LIBRARY\SDL2-2.0.8\INCLUDE\SDL_PLATFORM.H
C:\PROGRAM FILES (X86)\WINDOWS KITS\8.1\INCLUDE\SHARED\WINAPIFAMILY.H
E:\SETTING SOFTWARE SPACE\SDL LIBRARY\SDL2-2.0.8\INCLUDE\BEGIN_CODE.H
E:\SETTING SOFTWARE SPACE\SDL LIBRARY\SDL2-2.0.8\INCLUDE\CLOSE_CODE.H
C:\PROGRAM FILES (X86)\MICROSOFT VISUAL STUDIO 12.0\VC\INCLUDE\STDDEF.H
C:\PROGRAM FILES (X86)\MICROSOFT VISUAL STUDIO 12.0\VC\INCLUDE\CRTDEFS.H
C:\PROGRAM FILES (X86)\MICROSOFT VISUAL STUDIO 12.0\VC\INCLUDE\SAL.H
C:\PROGRAM FILES (X86)\MICROSOFT VISUAL STUDIO 12.0\VC\INCLUDE\CONCURRENCYSAL.H
C:\PROGRAM FILES (X86)\MICROSOFT VISUAL STUDIO 12.0\VC\INCLUDE\VADEFS.H
C:\PROGRAM FILES (X86)\MICROSOFT VISUAL STUDIO 12.0\VC\INCLUDE\STDARG.H
E:\SETTING SOFTWARE SPACE\SDL LIBRARY\SDL2-2.0.8\INCLUDE\SDL_ASSERT.H
E:\SETTING SOFTWARE SPACE\SDL LIBRARY\SDL2-2.0.8\INCLUDE\SDL_ATOMIC.H
E:\SETTING SOFTWARE SPACE\SDL LIBRARY\SDL2-2.0.8\INCLUDE\SDL_AUDIO.H
E:\SETTING SOFTWARE SPACE\SDL LIBRARY\SDL2-2.0.8\INCLUDE\SDL_ERROR.H
E:\SETTING SOFTWARE SPACE\SDL LIBRARY\SDL2-2.0.8\INCLUDE\SDL_ENDIAN.H
E:\SETTING SOFTWARE SPACE\SDL LIBRARY\SDL2-2.0.8\INCLUDE\SDL_MUTEX.H
E:\SETTING SOFTWARE SPACE\SDL LIBRARY\SDL2-2.0.8\INCLUDE\SDL_THREAD.H
C:\PROGRAM FILES (X86)\MICROSOFT VISUAL STUDIO 12.0\VC\INCLUDE\PROCESS.H
E:\SETTING SOFTWARE SPACE\SDL LIBRARY\SDL2-2.0.8\INCLUDE\SDL_RWOPS.H
E:\SETTING SOFTWARE SPACE\SDL LIBRARY\SDL2-2.0.8\INCLUDE\SDL_CLIPBOARD.H
E:\SETTING SOFTWARE SPACE\SDL LIBRARY\SDL2-2.0.8\INCLUDE\SDL_CPUINFO.H
C:\PROGRAM FILES (X86)\MICROSOFT VISUAL STUDIO 12.0\VC\INCLUDE\INTRIN.H
C:\PROGRAM FILES (X86)\MICROSOFT VISUAL STUDIO 12.0\VC\INCLUDE\SETJMP.H
C:\PROGRAM FILES (X86)\MICROSOFT VISUAL STUDIO 12.0\VC\INCLUDE\IMMINTRIN.H
C:\PROGRAM FILES (X86)\MICROSOFT VISUAL STUDIO 12.0\VC\INCLUDE\WMMINTRIN.H
C:\PROGRAM FILES (X86)\MICROSOFT VISUAL STUDIO 12.0\VC\INCLUDE\NMMINTRIN.H
C:\PROGRAM FILES (X86)\MICROSOFT VISUAL STUDIO 12.0\VC\INCLUDE\SMMINTRIN.H
C:\PROGRAM FILES (X86)\MICROSOFT VISUAL STUDIO 12.0\VC\INCLUDE\TMMINTRIN.H
C:\PROGRAM FILES (X86)\MICROSOFT VISUAL STUDIO 12.0\VC\INCLUDE\PMMINTRIN.H
C:\PROGRAM FILES (X86)\MICROSOFT VISUAL STUDIO 12.0\VC\INCLUDE\EMMINTRIN.H
C:\PROGRAM FILES (X86)\MICROSOFT VISUAL STUDIO 12.0\VC\INCLUDE\XMMINTRIN.H
C:\PROGRAM FILES (X86)\MICROSOFT VISUAL STUDIO 12.0\VC\INCLUDE\MMINTRIN.H
C:\PROGRAM FILES (X86)\MICROSOFT VISUAL STUDIO 12.0\VC\INCLUDE\MALLOC.H
C:\PROGRAM FILES (X86)\MICROSOFT VISUAL STUDIO 12.0\VC\INCLUDE\AMMINTRIN.H
C:\PROGRAM FILES (X86)\MICROSOFT VISUAL STUDIO 12.0\VC\INCLUDE\MM3DNOW.H
E:\SETTING SOFTWARE SPACE\SDL LIBRARY\SDL2-2.0.8\INCLUDE\SDL_EVENTS.H
E:\SETTING SOFTWARE SPACE\SDL LIBRARY\SDL2-2.0.8\INCLUDE\SDL_VIDEO.H
E:\SETTING SOFTWARE SPACE\SDL LIBRARY\SDL2-2.0.8\INCLUDE\SDL_PIXELS.H
E:\SETTING SOFTWARE SPACE\SDL LIBRARY\SDL2-2.0.8\INCLUDE\SDL_RECT.H
E:\SETTING SOFTWARE SPACE\SDL LIBRARY\SDL2-2.0.8\INCLUDE\SDL_SURFACE.H
E:\SETTING SOFTWARE SPACE\SDL LIBRARY\SDL2-2.0.8\INCLUDE\SDL_BLENDMODE.H
E:\SETTING SOFTWARE SPACE\SDL LIBRARY\SDL2-2.0.8\INCLUDE\SDL_KEYBOARD.H
E:\SETTING SOFTWARE SPACE\SDL LIBRARY\SDL2-2.0.8\INCLUDE\SDL_KEYCODE.H
E:\SETTING SOFTWARE SPACE\SDL LIBRARY\SDL2-2.0.8\INCLUDE\SDL_SCANCODE.H
E:\SETTING SOFTWARE SPACE\SDL LIBRARY\SDL2-2.0.8\INCLUDE\SDL_MOUSE.H
E:\SETTING SOFTWARE SPACE\SDL LIBRARY\SDL2-2.0.8\INCLUDE\SDL_JOYSTICK.H
E:\SETTING SOFTWARE SPACE\SDL LIBRARY\SDL2-2.0.8\INCLUDE\SDL_GAMECONTROLLER.H
E:\SETTING SOFTWARE SPACE\SDL LIBRARY\SDL2-2.0.8\INCLUDE\SDL_QUIT.H
E:\SETTING SOFTWARE SPACE\SDL LIBRARY\SDL2-2.0.8\INCLUDE\SDL_GESTURE.H
E:\SETTING SOFTWARE SPACE\SDL LIBRARY\SDL2-2.0.8\INCLUDE\SDL_TOUCH.H
E:\SETTING SOFTWARE SPACE\SDL LIBRARY\SDL2-2.0.8\INCLUDE\SDL_FILESYSTEM.H
E:\SETTING SOFTWARE SPACE\SDL LIBRARY\SDL2-2.0.8\INCLUDE\SDL_HAPTIC.H
E:\SETTING SOFTWARE SPACE\SDL LIBRARY\SDL2-2.0.8\INCLUDE\SDL_HINTS.H
E:\SETTING SOFTWARE SPACE\SDL LIBRARY\SDL2-2.0.8\INCLUDE\SDL_LOADSO.H
E:\SETTING SOFTWARE SPACE\SDL LIBRARY\SDL2-2.0.8\INCLUDE\SDL_LOG.H
E:\SETTING SOFTWARE SPACE\SDL LIBRARY\SDL2-2.0.8\INCLUDE\SDL_MESSAGEBOX.H
E:\SETTING SOFTWARE SPACE\SDL LIBRARY\SDL2-2.0.8\INCLUDE\SDL_POWER.H
E:\SETTING SOFTWARE SPACE\SDL LIBRARY\SDL2-2.0.8\INCLUDE\SDL_RENDER.H
E:\SETTING SOFTWARE SPACE\SDL LIBRARY\SDL2-2.0.8\INCLUDE\SDL_SHAPE.H
E:\SETTING SOFTWARE SPACE\SDL LIBRARY\SDL2-2.0.8\INCLUDE\SDL_SYSTEM.H
E:\SETTING SOFTWARE SPACE\SDL LIBRARY\SDL2-2.0.8\INCLUDE\SDL_TIMER.H
E:\SETTING SOFTWARE SPACE\SDL LIBRARY\SDL2-2.0.8\INCLUDE\SDL_VERSION.H
