^C:\USERS\A\DESKTOP\16521615_CG_2\FRAMEWORK-CG\CIRCLE.CPP|C:\USERS\A\DESKTOP\16521615_CG_2\FRAMEWORK-CG\ELLIPSE.CPP|C:\USERS\A\DESKTOP\16521615_CG_2\FRAMEWORK-CG\LINE.CPP|C:\USERS\A\DESKTOP\16521615_CG_2\FRAMEWORK-CG\MAIN.CPP|C:\USERS\A\DESKTOP\16521615_CG_2\FRAMEWORK-CG\PARAPOL.CPP|E:\SETTING SOFTWARE SPACE\SDL LIBRARY\16521615_CG\16521615_CG\CLIPPING.CPP|E:\SETTING SOFTWARE SPACE\SDL LIBRARY\16521615_CG\16521615_CG\DRAWPOLYGON.CPP
E:\SETTING SOFTWARE SPACE\SDL LIBRARY\16521615_CG\16521615_CG\DEBUG\VC120.PDB
E:\SETTING SOFTWARE SPACE\SDL LIBRARY\16521615_CG\16521615_CG\DEBUG\VC120.IDB
E:\SETTING SOFTWARE SPACE\SDL LIBRARY\16521615_CG\16521615_CG\DEBUG\CIRCLE.OBJ
E:\SETTING SOFTWARE SPACE\SDL LIBRARY\16521615_CG\16521615_CG\DEBUG\ELLIPSE.OBJ
E:\SETTING SOFTWARE SPACE\SDL LIBRARY\16521615_CG\16521615_CG\DEBUG\LINE.OBJ
E:\SETTING SOFTWARE SPACE\SDL LIBRARY\16521615_CG\16521615_CG\DEBUG\PARAPOL.OBJ
E:\SETTING SOFTWARE SPACE\SDL LIBRARY\16521615_CG\16521615_CG\DEBUG\DRAWPOLYGON.OBJ
^C:\USERS\A\DESKTOP\16521615_CG_2\FRAMEWORK-CG\CIRCLE.CPP
E:\SETTING SOFTWARE SPACE\SDL LIBRARY\16521615_CG\16521615_CG\DEBUG\VC120.PDB
^C:\USERS\A\DESKTOP\16521615_CG_2\FRAMEWORK-CG\ELLIPSE.CPP
E:\SETTING SOFTWARE SPACE\SDL LIBRARY\16521615_CG\16521615_CG\DEBUG\VC120.PDB
^C:\USERS\A\DESKTOP\16521615_CG_2\FRAMEWORK-CG\LINE.CPP
E:\SETTING SOFTWARE SPACE\SDL LIBRARY\16521615_CG\16521615_CG\DEBUG\VC120.PDB
^C:\USERS\A\DESKTOP\16521615_CG_2\FRAMEWORK-CG\MAIN.CPP
E:\SETTING SOFTWARE SPACE\SDL LIBRARY\16521615_CG\16521615_CG\DEBUG\VC120.PDB
^C:\USERS\A\DESKTOP\16521615_CG_2\FRAMEWORK-CG\PARAPOL.CPP
E:\SETTING SOFTWARE SPACE\SDL LIBRARY\16521615_CG\16521615_CG\DEBUG\VC120.PDB
^E:\SETTING SOFTWARE SPACE\SDL LIBRARY\16521615_CG\16521615_CG\CLIPPING.CPP
E:\SETTING SOFTWARE SPACE\SDL LIBRARY\16521615_CG\16521615_CG\DEBUG\VC120.PDB
^E:\SETTING SOFTWARE SPACE\SDL LIBRARY\16521615_CG\16521615_CG\DRAWPOLYGON.CPP
E:\SETTING SOFTWARE SPACE\SDL LIBRARY\16521615_CG\16521615_CG\DEBUG\VC120.PDB
^C:\USERS\A\DESKTOP\16521615_CG_2\FRAMEWORK-CG\MAIN.CPP|E:\SETTING SOFTWARE SPACE\SDL LIBRARY\16521615_CG\16521615_CG\CLIPPING.CPP
E:\SETTING SOFTWARE SPACE\SDL LIBRARY\16521615_CG\16521615_CG\DEBUG\VC120.PDB
E:\SETTING SOFTWARE SPACE\SDL LIBRARY\16521615_CG\16521615_CG\DEBUG\VC120.IDB
^C:\USERS\A\DESKTOP\16521615_CG_2\FRAMEWORK-CG\MAIN.CPP|E:\SETTING SOFTWARE SPACE\SDL LIBRARY\16521615_CG\16521615_CG\CLIPPING.CPP|E:\SETTING SOFTWARE SPACE\SDL LIBRARY\16521615_CG\16521615_CG\DRAWPOLYGON.CPP
E:\SETTING SOFTWARE SPACE\SDL LIBRARY\16521615_CG\16521615_CG\DEBUG\VC120.PDB
E:\SETTING SOFTWARE SPACE\SDL LIBRARY\16521615_CG\16521615_CG\DEBUG\VC120.IDB
E:\SETTING SOFTWARE SPACE\SDL LIBRARY\16521615_CG\16521615_CG\DEBUG\DRAWPOLYGON.OBJ
^C:\USERS\A\DESKTOP\16521615_CG_2\FRAMEWORK-CG\ELLIPSE.CPP|C:\USERS\A\DESKTOP\16521615_CG_2\FRAMEWORK-CG\MAIN.CPP|E:\SETTING SOFTWARE SPACE\SDL LIBRARY\16521615_CG\16521615_CG\CLIPPING.CPP|E:\SETTING SOFTWARE SPACE\SDL LIBRARY\16521615_CG\16521615_CG\DRAWPOLYGON.CPP
E:\SETTING SOFTWARE SPACE\SDL LIBRARY\16521615_CG\16521615_CG\DEBUG\VC120.PDB
E:\SETTING SOFTWARE SPACE\SDL LIBRARY\16521615_CG\16521615_CG\DEBUG\VC120.IDB
E:\SETTING SOFTWARE SPACE\SDL LIBRARY\16521615_CG\16521615_CG\DEBUG\ELLIPSE.OBJ
E:\SETTING SOFTWARE SPACE\SDL LIBRARY\16521615_CG\16521615_CG\DEBUG\DRAWPOLYGON.OBJ
^E:\SETTING SOFTWARE SPACE\SDL LIBRARY\16521615_CG\16521615_CG\DEMO.CPP
E:\SETTING SOFTWARE SPACE\SDL LIBRARY\16521615_CG\16521615_CG\DEBUG\VC120.PDB
E:\SETTING SOFTWARE SPACE\SDL LIBRARY\16521615_CG\16521615_CG\DEBUG\VC120.IDB
E:\SETTING SOFTWARE SPACE\SDL LIBRARY\16521615_CG\16521615_CG\DEBUG\DEMO.OBJ
^E:\DOWNLOADED FILES\FRAMEWORK-CG-MASTER-62A8BC4E5B554E811249B72281CE297F3C45607C\FRAMEWORK-CG-MASTER-62A8BC4E5B554E811249B72281CE297F3C45607C\CIRCLE.CPP|E:\DOWNLOADED FILES\FRAMEWORK-CG-MASTER-62A8BC4E5B554E811249B72281CE297F3C45607C\FRAMEWORK-CG-MASTER-62A8BC4E5B554E811249B72281CE297F3C45607C\CLIPPING.CPP|E:\DOWNLOADED FILES\FRAMEWORK-CG-MASTER-62A8BC4E5B554E811249B72281CE297F3C45607C\FRAMEWORK-CG-MASTER-62A8BC4E5B554E811249B72281CE297F3C45607C\DRAWPOLYGON.CPP|E:\DOWNLOADED FILES\FRAMEWORK-CG-MASTER-62A8BC4E5B554E811249B72281CE297F3C45607C\FRAMEWORK-CG-MASTER-62A8BC4E5B554E811249B72281CE297F3C45607C\ELLIPSE.CPP|E:\DOWNLOADED FILES\FRAMEWORK-CG-MASTER-62A8BC4E5B554E811249B72281CE297F3C45607C\FRAMEWORK-CG-MASTER-62A8BC4E5B554E811249B72281CE297F3C45607C\LINE.CPP|E:\DOWNLOADED FILES\FRAMEWORK-CG-MASTER-62A8BC4E5B554E811249B72281CE297F3C45607C\FRAMEWORK-CG-MASTER-62A8BC4E5B554E811249B72281CE297F3C45607C\MAIN.CPP|E:\DOWNLOADED FILES\FRAMEWORK-CG-MASTER-62A8BC4E5B554E811249B72281CE297F3C45607C\FRAMEWORK-CG-MASTER-62A8BC4E5B554E811249B72281CE297F3C45607C\PARABOL.CPP
E:\SETTING SOFTWARE SPACE\SDL LIBRARY\16521615_CG\16521615_CG\DEBUG\VC120.PDB
E:\SETTING SOFTWARE SPACE\SDL LIBRARY\16521615_CG\16521615_CG\DEBUG\VC120.IDB
E:\SETTING SOFTWARE SPACE\SDL LIBRARY\16521615_CG\16521615_CG\DEBUG\CIRCLE.OBJ
E:\SETTING SOFTWARE SPACE\SDL LIBRARY\16521615_CG\16521615_CG\DEBUG\DRAWPOLYGON.OBJ
E:\SETTING SOFTWARE SPACE\SDL LIBRARY\16521615_CG\16521615_CG\DEBUG\ELLIPSE.OBJ
E:\SETTING SOFTWARE SPACE\SDL LIBRARY\16521615_CG\16521615_CG\DEBUG\LINE.OBJ
E:\SETTING SOFTWARE SPACE\SDL LIBRARY\16521615_CG\16521615_CG\DEBUG\MAIN.OBJ
E:\SETTING SOFTWARE SPACE\SDL LIBRARY\16521615_CG\16521615_CG\DEBUG\PARABOL.OBJ
^E:\DOWNLOADED FILES\FRAMEWORK-CG-MASTER-62A8BC4E5B554E811249B72281CE297F3C45607C\FRAMEWORK-CG-MASTER-62A8BC4E5B554E811249B72281CE297F3C45607C\CIRCLE.CPP
E:\SETTING SOFTWARE SPACE\SDL LIBRARY\16521615_CG\16521615_CG\DEBUG\VC120.PDB
^E:\DOWNLOADED FILES\FRAMEWORK-CG-MASTER-62A8BC4E5B554E811249B72281CE297F3C45607C\FRAMEWORK-CG-MASTER-62A8BC4E5B554E811249B72281CE297F3C45607C\CLIPPING.CPP
E:\SETTING SOFTWARE SPACE\SDL LIBRARY\16521615_CG\16521615_CG\DEBUG\VC120.PDB
E:\SETTING SOFTWARE SPACE\SDL LIBRARY\16521615_CG\16521615_CG\DEBUG\VC120.IDB
E:\SETTING SOFTWARE SPACE\SDL LIBRARY\16521615_CG\16521615_CG\DEBUG\CLIPPING.OBJ
^E:\DOWNLOADED FILES\FRAMEWORK-CG-MASTER-62A8BC4E5B554E811249B72281CE297F3C45607C\FRAMEWORK-CG-MASTER-62A8BC4E5B554E811249B72281CE297F3C45607C\DRAWPOLYGON.CPP
E:\SETTING SOFTWARE SPACE\SDL LIBRARY\16521615_CG\16521615_CG\DEBUG\VC120.PDB
E:\SETTING SOFTWARE SPACE\SDL LIBRARY\16521615_CG\16521615_CG\DEBUG\VC120.IDB
E:\SETTING SOFTWARE SPACE\SDL LIBRARY\16521615_CG\16521615_CG\DEBUG\DRAWPOLYGON.OBJ
^E:\DOWNLOADED FILES\FRAMEWORK-CG-MASTER-62A8BC4E5B554E811249B72281CE297F3C45607C\FRAMEWORK-CG-MASTER-62A8BC4E5B554E811249B72281CE297F3C45607C\ELLIPSE.CPP
E:\SETTING SOFTWARE SPACE\SDL LIBRARY\16521615_CG\16521615_CG\DEBUG\VC120.PDB
^E:\DOWNLOADED FILES\FRAMEWORK-CG-MASTER-62A8BC4E5B554E811249B72281CE297F3C45607C\FRAMEWORK-CG-MASTER-62A8BC4E5B554E811249B72281CE297F3C45607C\LINE.CPP
E:\SETTING SOFTWARE SPACE\SDL LIBRARY\16521615_CG\16521615_CG\DEBUG\VC120.PDB
E:\SETTING SOFTWARE SPACE\SDL LIBRARY\16521615_CG\16521615_CG\DEBUG\VC120.IDB
E:\SETTING SOFTWARE SPACE\SDL LIBRARY\16521615_CG\16521615_CG\DEBUG\LINE.OBJ
^E:\DOWNLOADED FILES\FRAMEWORK-CG-MASTER-62A8BC4E5B554E811249B72281CE297F3C45607C\FRAMEWORK-CG-MASTER-62A8BC4E5B554E811249B72281CE297F3C45607C\MAIN.CPP
E:\SETTING SOFTWARE SPACE\SDL LIBRARY\16521615_CG\16521615_CG\DEBUG\VC120.PDB
E:\SETTING SOFTWARE SPACE\SDL LIBRARY\16521615_CG\16521615_CG\DEBUG\VC120.IDB
E:\SETTING SOFTWARE SPACE\SDL LIBRARY\16521615_CG\16521615_CG\DEBUG\MAIN.OBJ
^E:\DOWNLOADED FILES\FRAMEWORK-CG-MASTER-62A8BC4E5B554E811249B72281CE297F3C45607C\FRAMEWORK-CG-MASTER-62A8BC4E5B554E811249B72281CE297F3C45607C\PARABOL.CPP
E:\SETTING SOFTWARE SPACE\SDL LIBRARY\16521615_CG\16521615_CG\DEBUG\VC120.PDB
^E:\DOWNLOADED FILES\FRAMEWORK-CG-MASTER-62A8BC4E5B554E811249B72281CE297F3C45607C\FRAMEWORK-CG-MASTER-62A8BC4E5B554E811249B72281CE297F3C45607C\CIRCLE.CPP|E:\DOWNLOADED FILES\FRAMEWORK-CG-MASTER-62A8BC4E5B554E811249B72281CE297F3C45607C\FRAMEWORK-CG-MASTER-62A8BC4E5B554E811249B72281CE297F3C45607C\CLIPPING.CPP|E:\DOWNLOADED FILES\FRAMEWORK-CG-MASTER-62A8BC4E5B554E811249B72281CE297F3C45607C\FRAMEWORK-CG-MASTER-62A8BC4E5B554E811249B72281CE297F3C45607C\ELLIPSE.CPP|E:\DOWNLOADED FILES\FRAMEWORK-CG-MASTER-62A8BC4E5B554E811249B72281CE297F3C45607C\FRAMEWORK-CG-MASTER-62A8BC4E5B554E811249B72281CE297F3C45607C\LINE.CPP|E:\DOWNLOADED FILES\FRAMEWORK-CG-MASTER-62A8BC4E5B554E811249B72281CE297F3C45607C\FRAMEWORK-CG-MASTER-62A8BC4E5B554E811249B72281CE297F3C45607C\PARABOL.CPP
E:\SETTING SOFTWARE SPACE\SDL LIBRARY\16521615_CG\16521615_CG\DEBUG\VC120.PDB
E:\SETTING SOFTWARE SPACE\SDL LIBRARY\16521615_CG\16521615_CG\DEBUG\VC120.IDB
E:\SETTING SOFTWARE SPACE\SDL LIBRARY\16521615_CG\16521615_CG\DEBUG\CIRCLE.OBJ
E:\SETTING SOFTWARE SPACE\SDL LIBRARY\16521615_CG\16521615_CG\DEBUG\ELLIPSE.OBJ
E:\SETTING SOFTWARE SPACE\SDL LIBRARY\16521615_CG\16521615_CG\DEBUG\LINE.OBJ
E:\SETTING SOFTWARE SPACE\SDL LIBRARY\16521615_CG\16521615_CG\DEBUG\PARABOL.OBJ
^E:\DOWNLOADED FILES\FRAMEWORK-CG-MASTER-62A8BC4E5B554E811249B72281CE297F3C45607C\FRAMEWORK-CG-MASTER-62A8BC4E5B554E811249B72281CE297F3C45607C\CLIPPING.CPP|E:\DOWNLOADED FILES\FRAMEWORK-CG-MASTER-62A8BC4E5B554E811249B72281CE297F3C45607C\FRAMEWORK-CG-MASTER-62A8BC4E5B554E811249B72281CE297F3C45607C\DRAWPOLYGON.CPP
E:\SETTING SOFTWARE SPACE\SDL LIBRARY\16521615_CG\16521615_CG\DEBUG\VC120.PDB
E:\SETTING SOFTWARE SPACE\SDL LIBRARY\16521615_CG\16521615_CG\DEBUG\VC120.IDB
E:\SETTING SOFTWARE SPACE\SDL LIBRARY\16521615_CG\16521615_CG\DEBUG\DRAWPOLYGON.OBJ
^E:\DOWNLOADED FILES\FRAMEWORK-CG-MASTER-62A8BC4E5B554E811249B72281CE297F3C45607C\FRAMEWORK-CG-MASTER-62A8BC4E5B554E811249B72281CE297F3C45607C\DRAWPOLYGON.CPP|E:\DOWNLOADED FILES\FRAMEWORK-CG-MASTER-62A8BC4E5B554E811249B72281CE297F3C45607C\FRAMEWORK-CG-MASTER-62A8BC4E5B554E811249B72281CE297F3C45607C\MAIN.CPP
E:\SETTING SOFTWARE SPACE\SDL LIBRARY\16521615_CG\16521615_CG\DEBUG\VC120.PDB
E:\SETTING SOFTWARE SPACE\SDL LIBRARY\16521615_CG\16521615_CG\DEBUG\VC120.IDB
E:\SETTING SOFTWARE SPACE\SDL LIBRARY\16521615_CG\16521615_CG\DEBUG\DRAWPOLYGON.OBJ
E:\SETTING SOFTWARE SPACE\SDL LIBRARY\16521615_CG\16521615_CG\DEBUG\MAIN.OBJ
^E:\DOWNLOADED FILES\FRAMEWORK-CG-MASTER-62A8BC4E5B554E811249B72281CE297F3C45607C\FRAMEWORK-CG-MASTER-62A8BC4E5B554E811249B72281CE297F3C45607C\DRAWPOLYGON.CPP|E:\DOWNLOADED FILES\FRAMEWORK-CG-MASTER-62A8BC4E5B554E811249B72281CE297F3C45607C\FRAMEWORK-CG-MASTER-62A8BC4E5B554E811249B72281CE297F3C45607C\LINE.CPP
E:\SETTING SOFTWARE SPACE\SDL LIBRARY\16521615_CG\16521615_CG\DEBUG\VC120.PDB
E:\SETTING SOFTWARE SPACE\SDL LIBRARY\16521615_CG\16521615_CG\DEBUG\VC120.IDB
E:\SETTING SOFTWARE SPACE\SDL LIBRARY\16521615_CG\16521615_CG\DEBUG\DRAWPOLYGON.OBJ
E:\SETTING SOFTWARE SPACE\SDL LIBRARY\16521615_CG\16521615_CG\DEBUG\LINE.OBJ
^E:\DOWNLOADED FILES\FRAMEWORK-CG-MASTER-62A8BC4E5B554E811249B72281CE297F3C45607C\FRAMEWORK-CG-MASTER-62A8BC4E5B554E811249B72281CE297F3C45607C\LINE.CPP|E:\DOWNLOADED FILES\FRAMEWORK-CG-MASTER-62A8BC4E5B554E811249B72281CE297F3C45607C\FRAMEWORK-CG-MASTER-62A8BC4E5B554E811249B72281CE297F3C45607C\MAIN.CPP
E:\SETTING SOFTWARE SPACE\SDL LIBRARY\16521615_CG\16521615_CG\DEBUG\VC120.PDB
E:\SETTING SOFTWARE SPACE\SDL LIBRARY\16521615_CG\16521615_CG\DEBUG\VC120.IDB
E:\SETTING SOFTWARE SPACE\SDL LIBRARY\16521615_CG\16521615_CG\DEBUG\MAIN.OBJ
^E:\DOWNLOADED FILES\FRAMEWORK-CG-MASTER-62A8BC4E5B554E811249B72281CE297F3C45607C\FRAMEWORK-CG-MASTER-62A8BC4E5B554E811249B72281CE297F3C45607C\CLIPPING.CPP|E:\DOWNLOADED FILES\FRAMEWORK-CG-MASTER-62A8BC4E5B554E811249B72281CE297F3C45607C\FRAMEWORK-CG-MASTER-62A8BC4E5B554E811249B72281CE297F3C45607C\MAIN.CPP
E:\SETTING SOFTWARE SPACE\SDL LIBRARY\16521615_CG\16521615_CG\DEBUG\VC120.PDB
E:\SETTING SOFTWARE SPACE\SDL LIBRARY\16521615_CG\16521615_CG\DEBUG\VC120.IDB
E:\SETTING SOFTWARE SPACE\SDL LIBRARY\16521615_CG\16521615_CG\DEBUG\CLIPPING.OBJ
E:\SETTING SOFTWARE SPACE\SDL LIBRARY\16521615_CG\16521615_CG\DEBUG\MAIN.OBJ
^C:\USERS\A\DOWNLOADED FILES\FRAMEWORK-CG-MASTER-62A8BC4E5B554E811249B72281CE297F3C45607C\FRAMEWORK-CG-MASTER-62A8BC4E5B554E811249B72281CE297F3C45607C\CIRCLE.CPP|C:\USERS\A\DOWNLOADED FILES\FRAMEWORK-CG-MASTER-62A8BC4E5B554E811249B72281CE297F3C45607C\FRAMEWORK-CG-MASTER-62A8BC4E5B554E811249B72281CE297F3C45607C\CLIPPING.CPP|C:\USERS\A\DOWNLOADED FILES\FRAMEWORK-CG-MASTER-62A8BC4E5B554E811249B72281CE297F3C45607C\FRAMEWORK-CG-MASTER-62A8BC4E5B554E811249B72281CE297F3C45607C\DRAWPOLYGON.CPP|C:\USERS\A\DOWNLOADED FILES\FRAMEWORK-CG-MASTER-62A8BC4E5B554E811249B72281CE297F3C45607C\FRAMEWORK-CG-MASTER-62A8BC4E5B554E811249B72281CE297F3C45607C\ELLIPSE.CPP|C:\USERS\A\DOWNLOADED FILES\FRAMEWORK-CG-MASTER-62A8BC4E5B554E811249B72281CE297F3C45607C\FRAMEWORK-CG-MASTER-62A8BC4E5B554E811249B72281CE297F3C45607C\LINE.CPP|C:\USERS\A\DOWNLOADED FILES\FRAMEWORK-CG-MASTER-62A8BC4E5B554E811249B72281CE297F3C45607C\FRAMEWORK-CG-MASTER-62A8BC4E5B554E811249B72281CE297F3C45607C\MAIN.CPP|C:\USERS\A\DOWNLOADED FILES\FRAMEWORK-CG-MASTER-62A8BC4E5B554E811249B72281CE297F3C45607C\FRAMEWORK-CG-MASTER-62A8BC4E5B554E811249B72281CE297F3C45607C\PARABOL.CPP
^C:\USERS\A\DOWNLOADED FILES\FRAMEWORK-CG-MASTER-62A8BC4E5B554E811249B72281CE297F3C45607C\FRAMEWORK-CG-MASTER-62A8BC4E5B554E811249B72281CE297F3C45607C\CIRCLE.CPP
C:\USERS\A\DESKTOP\16521615_CG\16521615_CG_TH3\16521615_CG\DEBUG\VC120.PDB
^C:\USERS\A\DOWNLOADED FILES\FRAMEWORK-CG-MASTER-62A8BC4E5B554E811249B72281CE297F3C45607C\FRAMEWORK-CG-MASTER-62A8BC4E5B554E811249B72281CE297F3C45607C\CLIPPING.CPP
C:\USERS\A\DESKTOP\16521615_CG\16521615_CG_TH3\16521615_CG\DEBUG\VC120.PDB
^C:\USERS\A\DOWNLOADED FILES\FRAMEWORK-CG-MASTER-62A8BC4E5B554E811249B72281CE297F3C45607C\FRAMEWORK-CG-MASTER-62A8BC4E5B554E811249B72281CE297F3C45607C\DRAWPOLYGON.CPP
C:\USERS\A\DESKTOP\16521615_CG\16521615_CG_TH3\16521615_CG\DEBUG\VC120.PDB
^C:\USERS\A\DOWNLOADED FILES\FRAMEWORK-CG-MASTER-62A8BC4E5B554E811249B72281CE297F3C45607C\FRAMEWORK-CG-MASTER-62A8BC4E5B554E811249B72281CE297F3C45607C\ELLIPSE.CPP
C:\USERS\A\DESKTOP\16521615_CG\16521615_CG_TH3\16521615_CG\DEBUG\VC120.PDB
^C:\USERS\A\DOWNLOADED FILES\FRAMEWORK-CG-MASTER-62A8BC4E5B554E811249B72281CE297F3C45607C\FRAMEWORK-CG-MASTER-62A8BC4E5B554E811249B72281CE297F3C45607C\LINE.CPP
C:\USERS\A\DESKTOP\16521615_CG\16521615_CG_TH3\16521615_CG\DEBUG\VC120.PDB
^C:\USERS\A\DOWNLOADED FILES\FRAMEWORK-CG-MASTER-62A8BC4E5B554E811249B72281CE297F3C45607C\FRAMEWORK-CG-MASTER-62A8BC4E5B554E811249B72281CE297F3C45607C\MAIN.CPP
C:\USERS\A\DESKTOP\16521615_CG\16521615_CG_TH3\16521615_CG\DEBUG\VC120.PDB
^C:\USERS\A\DOWNLOADED FILES\FRAMEWORK-CG-MASTER-62A8BC4E5B554E811249B72281CE297F3C45607C\FRAMEWORK-CG-MASTER-62A8BC4E5B554E811249B72281CE297F3C45607C\PARABOL.CPP
C:\USERS\A\DESKTOP\16521615_CG\16521615_CG_TH3\16521615_CG\DEBUG\VC120.PDB
