^E:\SETTING SOFTWARE SPACE\SDL LIBRARY\16521615_CG\16521615_CG\DEBUG\CIRCLE.OBJ|E:\SETTING SOFTWARE SPACE\SDL LIBRARY\16521615_CG\16521615_CG\DEBUG\CLIPPING.OBJ|E:\SETTING SOFTWARE SPACE\SDL LIBRARY\16521615_CG\16521615_CG\DEBUG\DRAWPOLYGON.OBJ|E:\SETTING SOFTWARE SPACE\SDL LIBRARY\16521615_CG\16521615_CG\DEBUG\ELLIPSE.OBJ|E:\SETTING SOFTWARE SPACE\SDL LIBRARY\16521615_CG\16521615_CG\DEBUG\LINE.OBJ|E:\SETTING SOFTWARE SPACE\SDL LIBRARY\16521615_CG\16521615_CG\DEBUG\MAIN.OBJ|E:\SETTING SOFTWARE SPACE\SDL LIBRARY\16521615_CG\16521615_CG\DEBUG\PARABOL.OBJ
E:\SETTING SOFTWARE SPACE\SDL LIBRARY\16521615_CG\DEBUG\16521615_CG.ILK
E:\SETTING SOFTWARE SPACE\SDL LIBRARY\16521615_CG\DEBUG\16521615_CG.EXE
E:\SETTING SOFTWARE SPACE\SDL LIBRARY\16521615_CG\DEBUG\16521615_CG.PDB
